<?xml version="1.0" encoding="UTF-8" standalone="no"?>
<!-- Created with Inkscape (http://www.inkscape.org/) -->

<svg
   xmlns:dc="http://purl.org/dc/elements/1.1/"
   xmlns:cc="http://creativecommons.org/ns#"
   xmlns:rdf="http://www.w3.org/1999/02/22-rdf-syntax-ns#"
   xmlns:svg="http://www.w3.org/2000/svg"
   xmlns="http://www.w3.org/2000/svg"
   xmlns:xlink="http://www.w3.org/1999/xlink"
   xmlns:sodipodi="http://sodipodi.sourceforge.net/DTD/sodipodi-0.dtd"
   xmlns:inkscape="http://www.inkscape.org/namespaces/inkscape"
   width="30.002781"
   height="30.002781"
   id="svg3310"
   version="1.1"
   inkscape:version="0.47 r22583"
   sodipodi:docname="btn_step.svg">
  <defs
     id="defs3312">
    <linearGradient
       id="linearGradient3818">
      <stop
         style="stop-color:#000000;stop-opacity:1;"
         offset="0"
         id="stop3820" />
      <stop
         style="stop-color:#0080ff;stop-opacity:1;"
         offset="1"
         id="stop3822" />
    </linearGradient>
    <inkscape:perspective
       sodipodi:type="inkscape:persp3d"
       inkscape:vp_x="0 : 526.18109 : 1"
       inkscape:vp_y="0 : 1000 : 0"
       inkscape:vp_z="744.09448 : 526.18109 : 1"
       inkscape:persp3d-origin="372.04724 : 350.78739 : 1"
       id="perspective3318" />
    <inkscape:perspective
       id="perspective3328"
       inkscape:persp3d-origin="0.5 : 0.33333333 : 1"
       inkscape:vp_z="1 : 0.5 : 1"
       inkscape:vp_y="0 : 1000 : 0"
       inkscape:vp_x="0 : 0.5 : 1"
       sodipodi:type="inkscape:persp3d" />
    <linearGradient
       id="linearGradient1664">
      <stop
         id="stop1666"
         offset="0"
         style="stop-color:#f6f6f6;stop-opacity:0.56589144;" />
      <stop
         id="stop1668"
         offset="1"
         style="stop-color:#ffffff;stop-opacity:0;" />
    </linearGradient>
    <inkscape:perspective
       id="perspective3389"
       inkscape:persp3d-origin="0.5 : 0.33333333 : 1"
       inkscape:vp_z="1 : 0.5 : 1"
       inkscape:vp_y="0 : 1000 : 0"
       inkscape:vp_x="0 : 0.5 : 1"
       sodipodi:type="inkscape:persp3d" />
    <linearGradient
       id="linearGradient1597">
      <stop
         style="stop-color:#f6f6f6;stop-opacity:0.91860467;"
         offset="0"
         id="stop1599" />
      <stop
         style="stop-color:#ffffff;stop-opacity:0;"
         offset="1"
         id="stop1601" />
    </linearGradient>
    <inkscape:perspective
       id="perspective3450"
       inkscape:persp3d-origin="0.5 : 0.33333333 : 1"
       inkscape:vp_z="1 : 0.5 : 1"
       inkscape:vp_y="0 : 1000 : 0"
       inkscape:vp_x="0 : 0.5 : 1"
       sodipodi:type="inkscape:persp3d" />
    <radialGradient
       inkscape:collect="always"
       xlink:href="#linearGradient1664-6"
       id="radialGradient1662"
       gradientUnits="userSpaceOnUse"
       gradientTransform="matrix(0.80054699,-0.64655184,1.0704539,1.3254138,-192.83453,33.441024)"
       cx="151.99707"
       cy="203.84746"
       fx="151.99707"
       fy="203.84746"
       r="47.477169" />
    <linearGradient
       id="linearGradient1664-6">
      <stop
         id="stop1666-9"
         offset="0"
         style="stop-color:#f6f6f6;stop-opacity:0.56589144;" />
      <stop
         id="stop1668-4"
         offset="1"
         style="stop-color:#ffffff;stop-opacity:0;" />
    </linearGradient>
    <inkscape:perspective
       id="perspective3488"
       inkscape:persp3d-origin="0.5 : 0.33333333 : 1"
       inkscape:vp_z="1 : 0.5 : 1"
       inkscape:vp_y="0 : 1000 : 0"
       inkscape:vp_x="0 : 0.5 : 1"
       sodipodi:type="inkscape:persp3d" />
    <linearGradient
       id="linearGradient1664-8">
      <stop
         id="stop1666-92"
         offset="0"
         style="stop-color:#f6f6f6;stop-opacity:0.56589144;" />
      <stop
         id="stop1668-8"
         offset="1"
         style="stop-color:#ffffff;stop-opacity:0;" />
    </linearGradient>
    <inkscape:perspective
       id="perspective3605"
       inkscape:persp3d-origin="0.5 : 0.33333333 : 1"
       inkscape:vp_z="1 : 0.5 : 1"
       inkscape:vp_y="0 : 1000 : 0"
       inkscape:vp_x="0 : 0.5 : 1"
       sodipodi:type="inkscape:persp3d" />
    <linearGradient
       id="linearGradient1597-9">
      <stop
         style="stop-color:#f6f6f6;stop-opacity:0.91860467;"
         offset="0"
         id="stop1599-1" />
      <stop
         style="stop-color:#ffffff;stop-opacity:0;"
         offset="1"
         id="stop1601-5" />
    </linearGradient>
    <inkscape:perspective
       id="perspective3666"
       inkscape:persp3d-origin="0.5 : 0.33333333 : 1"
       inkscape:vp_z="1 : 0.5 : 1"
       inkscape:vp_y="0 : 1000 : 0"
       inkscape:vp_x="0 : 0.5 : 1"
       sodipodi:type="inkscape:persp3d" />
    <linearGradient
       id="linearGradient1664-9">
      <stop
         id="stop1666-0"
         offset="0"
         style="stop-color:#f6f6f6;stop-opacity:0.56589144;" />
      <stop
         id="stop1668-8-7"
         offset="1"
         style="stop-color:#ffffff;stop-opacity:0;" />
    </linearGradient>
    <inkscape:perspective
       id="perspective3733"
       inkscape:persp3d-origin="0.5 : 0.33333333 : 1"
       inkscape:vp_z="1 : 0.5 : 1"
       inkscape:vp_y="0 : 1000 : 0"
       inkscape:vp_x="0 : 0.5 : 1"
       sodipodi:type="inkscape:persp3d" />
    <linearGradient
       id="linearGradient1597-5">
      <stop
         style="stop-color:#f6f6f6;stop-opacity:0.91860467;"
         offset="0"
         id="stop1599-0" />
      <stop
         style="stop-color:#ffffff;stop-opacity:0;"
         offset="1"
         id="stop1601-9" />
    </linearGradient>
    <inkscape:perspective
       id="perspective3800"
       inkscape:persp3d-origin="0.5 : 0.33333333 : 1"
       inkscape:vp_z="1 : 0.5 : 1"
       inkscape:vp_y="0 : 1000 : 0"
       inkscape:vp_x="0 : 0.5 : 1"
       sodipodi:type="inkscape:persp3d" />
    <linearGradient
       id="linearGradient1664-98">
      <stop
         id="stop1666-4"
         offset="0"
         style="stop-color:#f6f6f6;stop-opacity:0.56589144;" />
      <stop
         id="stop1668-81"
         offset="1"
         style="stop-color:#ffffff;stop-opacity:0;" />
    </linearGradient>
    <inkscape:perspective
       id="perspective3837"
       inkscape:persp3d-origin="0.5 : 0.33333333 : 1"
       inkscape:vp_z="1 : 0.5 : 1"
       inkscape:vp_y="0 : 1000 : 0"
       inkscape:vp_x="0 : 0.5 : 1"
       sodipodi:type="inkscape:persp3d" />
    <linearGradient
       id="linearGradient1597-3">
      <stop
         style="stop-color:#f6f6f6;stop-opacity:0.91860467;"
         offset="0"
         id="stop1599-04" />
      <stop
         style="stop-color:#ffffff;stop-opacity:0;"
         offset="1"
         id="stop1601-4" />
    </linearGradient>
    <inkscape:perspective
       id="perspective3898"
       inkscape:persp3d-origin="0.5 : 0.33333333 : 1"
       inkscape:vp_z="1 : 0.5 : 1"
       inkscape:vp_y="0 : 1000 : 0"
       inkscape:vp_x="0 : 0.5 : 1"
       sodipodi:type="inkscape:persp3d" />
    <linearGradient
       id="linearGradient1664-98-4">
      <stop
         id="stop1666-4-0"
         offset="0"
         style="stop-color:#f6f6f6;stop-opacity:0.56589144;" />
      <stop
         id="stop1668-81-8"
         offset="1"
         style="stop-color:#ffffff;stop-opacity:0;" />
    </linearGradient>
    <inkscape:perspective
       id="perspective3959"
       inkscape:persp3d-origin="0.5 : 0.33333333 : 1"
       inkscape:vp_z="1 : 0.5 : 1"
       inkscape:vp_y="0 : 1000 : 0"
       inkscape:vp_x="0 : 0.5 : 1"
       sodipodi:type="inkscape:persp3d" />
    <linearGradient
       id="linearGradient1664-3">
      <stop
         id="stop1666-8"
         offset="0"
         style="stop-color:#f6f6f6;stop-opacity:0.56589144;" />
      <stop
         id="stop1668-5"
         offset="1"
         style="stop-color:#ffffff;stop-opacity:0;" />
    </linearGradient>
    <inkscape:perspective
       id="perspective4023"
       inkscape:persp3d-origin="0.5 : 0.33333333 : 1"
       inkscape:vp_z="1 : 0.5 : 1"
       inkscape:vp_y="0 : 1000 : 0"
       inkscape:vp_x="0 : 0.5 : 1"
       sodipodi:type="inkscape:persp3d" />
    <radialGradient
       inkscape:collect="always"
       xlink:href="#linearGradient1597-57"
       id="radialGradient3123"
       gradientUnits="userSpaceOnUse"
       gradientTransform="matrix(0.800547,-0.6465518,1.0704539,1.3254138,-192.83453,33.441024)"
       cx="151.99707"
       cy="203.84746"
       fx="151.99707"
       fy="203.84746"
       r="47.477169" />
    <linearGradient
       id="linearGradient1597-57">
      <stop
         style="stop-color:#f6f6f6;stop-opacity:0.91860467;"
         offset="0"
         id="stop1599-13" />
      <stop
         style="stop-color:#ffffff;stop-opacity:0;"
         offset="1"
         id="stop1601-3" />
    </linearGradient>
    <inkscape:perspective
       id="perspective4087"
       inkscape:persp3d-origin="0.5 : 0.33333333 : 1"
       inkscape:vp_z="1 : 0.5 : 1"
       inkscape:vp_y="0 : 1000 : 0"
       inkscape:vp_x="0 : 0.5 : 1"
       sodipodi:type="inkscape:persp3d" />
    <radialGradient
       inkscape:collect="always"
       xlink:href="#linearGradient1664-98-1"
       id="radialGradient1662-5"
       gradientUnits="userSpaceOnUse"
       gradientTransform="matrix(0.80054699,-0.64655184,1.0704539,1.3254138,-192.83453,33.441024)"
       cx="151.99707"
       cy="203.84746"
       fx="151.99707"
       fy="203.84746"
       r="47.477169" />
    <linearGradient
       id="linearGradient1664-98-1">
      <stop
         id="stop1666-4-5"
         offset="0"
         style="stop-color:#f6f6f6;stop-opacity:0.56589144;" />
      <stop
         id="stop1668-81-0"
         offset="1"
         style="stop-color:#ffffff;stop-opacity:0;" />
    </linearGradient>
    <inkscape:perspective
       id="perspective4102"
       inkscape:persp3d-origin="0.5 : 0.33333333 : 1"
       inkscape:vp_z="1 : 0.5 : 1"
       inkscape:vp_y="0 : 1000 : 0"
       inkscape:vp_x="0 : 0.5 : 1"
       sodipodi:type="inkscape:persp3d" />
  </defs>
  <sodipodi:namedview
     id="base"
     pagecolor="#ffffff"
     bordercolor="#666666"
     borderopacity="1.0"
     inkscape:pageopacity="0.0"
     inkscape:pageshadow="2"
     inkscape:zoom="11.907473"
     inkscape:cx="51.982504"
     inkscape:cy="6.3088338"
     inkscape:document-units="px"
     inkscape:current-layer="layer1"
     showgrid="false"
     inkscape:window-width="1680"
     inkscape:window-height="967"
     inkscape:window-x="-4"
     inkscape:window-y="-3"
     inkscape:window-maximized="1" />
  <metadata
     id="metadata3315">
    <rdf:RDF>
      <cc:Work
         rdf:about="">
        <dc:format>image/svg+xml</dc:format>
        <dc:type
           rdf:resource="http://purl.org/dc/dcmitype/StillImage" />
        <dc:title></dc:title>
      </cc:Work>
    </rdf:RDF>
  </metadata>
  <g
     inkscape:label="Layer 1"
     inkscape:groupmode="layer"
     id="layer1"
     transform="translate(-1019.8292,-675.07454)">
    <path
       sodipodi:type="arc"
       style="fill:#000066;fill-opacity:1;stroke:none;stroke-width:1.03392540999999993;stroke-linejoin:miter;stroke-miterlimit:4;stroke-opacity:1;stroke-dasharray:none"
       id="path3044"
       sodipodi:cx="15.446428"
       sodipodi:cy="14.642858"
       sodipodi:rx="15.446428"
       sodipodi:ry="14.553572"
       d="m 30.892857,14.642858 c 0,8.037715 -6.915602,14.553571 -15.446429,14.553571 C 6.9156015,29.196429 0,22.680573 0,14.642858 0,6.6051418 6.9156015,0.08928585 15.446428,0.08928585 c 8.530827,0 15.446429,6.51585595 15.446429,14.55357215 z"
       transform="matrix(0.93881834,0,0,-0.99641452,1020.3292,704.66629)" />
    <g
       id="g4119"
       style="fill:#00ff00;fill-opacity:1;stroke:none"
       transform="matrix(0.62611492,0,0,0.62611492,371.64142,262.81355)">
      <path
         inkscape:export-ydpi="98.312241"
         inkscape:export-xdpi="98.312241"
         inkscape:export-filename="/home/victor/work/trunk/Pictomir/Images/btn_runtoend_inactive.png"
         transform="matrix(-0.30623155,0.04826131,0.03476483,0.42511733,1091.9323,574.50844)"
         d="m 171.72592,264.94828 -27.61844,-12.84383 -27.61844,-12.84383 24.93231,-17.49636 24.9323,-17.49635 2.68614,30.34018 2.68613,30.34019 z"
         inkscape:randomized="0"
         inkscape:rounded="0"
         inkscape:flatsided="false"
         sodipodi:arg2="2.0060914"
         sodipodi:arg1="0.95889389"
         sodipodi:r2="17.585432"
         sodipodi:r1="35.170864"
         sodipodi:cy="236.15894"
         sodipodi:cx="151.52287"
         sodipodi:sides="3"
         id="path3129"
         style="fill:#00ff00;fill-opacity:1;fill-rule:evenodd;stroke:none"
         sodipodi:type="star" />
      <path
         inkscape:export-ydpi="98.312241"
         inkscape:export-xdpi="98.312241"
         inkscape:export-filename="/home/victor/work/trunk/Pictomir/Images/btn_runtoend_inactive.png"
         transform="matrix(-0.30623155,0.04826131,0.03476483,0.42511733,1104.0788,574.50844)"
         d="m 171.72592,264.94828 -27.61844,-12.84383 -27.61844,-12.84383 24.93231,-17.49636 24.9323,-17.49635 2.68614,30.34018 2.68613,30.34019 z"
         inkscape:randomized="0"
         inkscape:rounded="0"
         inkscape:flatsided="false"
         sodipodi:arg2="2.0060914"
         sodipodi:arg1="0.95889389"
         sodipodi:r2="17.585432"
         sodipodi:r1="35.170864"
         sodipodi:cy="236.15894"
         sodipodi:cx="151.52287"
         sodipodi:sides="3"
         id="path3131"
         style="fill:#00ff00;fill-opacity:1;fill-rule:evenodd;stroke:none"
         sodipodi:type="star" />
    </g>
  </g>
</svg>
