<?xml version="1.0" encoding="UTF-8" standalone="no"?>
<!-- Created with Inkscape (http://www.inkscape.org/) -->

<svg
   xmlns:dc="http://purl.org/dc/elements/1.1/"
   xmlns:cc="http://creativecommons.org/ns#"
   xmlns:rdf="http://www.w3.org/1999/02/22-rdf-syntax-ns#"
   xmlns:svg="http://www.w3.org/2000/svg"
   xmlns="http://www.w3.org/2000/svg"
   xmlns:xlink="http://www.w3.org/1999/xlink"
   xmlns:sodipodi="http://sodipodi.sourceforge.net/DTD/sodipodi-0.dtd"
   xmlns:inkscape="http://www.inkscape.org/namespaces/inkscape"
   width="800"
   height="800"
   id="svg2"
   version="1.1"
   inkscape:version="0.47 r22583"
   sodipodi:docname="iconset.svg">
  <defs
     id="defs4">
    <linearGradient
       id="linearGradient5921">
      <stop
         style="stop-color:#00cc00;stop-opacity:1;"
         offset="0"
         id="stop5923" />
      <stop
         style="stop-color:#008000;stop-opacity:1;"
         offset="1"
         id="stop5925" />
    </linearGradient>
    <linearGradient
       id="linearGradient5548">
      <stop
         style="stop-color:#008000;stop-opacity:1;"
         offset="0"
         id="stop5550" />
      <stop
         style="stop-color:#00ff00;stop-opacity:1;"
         offset="1"
         id="stop5552" />
    </linearGradient>
    <linearGradient
       inkscape:collect="always"
       id="linearGradient5540">
      <stop
         style="stop-color:#008080;stop-opacity:1;"
         offset="0"
         id="stop5542" />
      <stop
         style="stop-color:#241c1c;stop-opacity:1"
         offset="1"
         id="stop5544" />
    </linearGradient>
    <linearGradient
       id="linearGradient5418">
      <stop
         id="stop5420"
         offset="0"
         style="stop-color:#00a800;stop-opacity:1;" />
      <stop
         id="stop5422"
         offset="1"
         style="stop-color:#000000;stop-opacity:1;" />
    </linearGradient>
    <linearGradient
       id="linearGradient5325">
      <stop
         style="stop-color:#00cc00;stop-opacity:1;"
         offset="0"
         id="stop5327" />
      <stop
         style="stop-color:#008000;stop-opacity:1;"
         offset="1"
         id="stop5329" />
    </linearGradient>
    <linearGradient
       id="linearGradient5317">
      <stop
         style="stop-color:#00cc00;stop-opacity:1;"
         offset="0"
         id="stop5319" />
      <stop
         style="stop-color:#008000;stop-opacity:1;"
         offset="1"
         id="stop5321" />
    </linearGradient>
    <linearGradient
       id="linearGradient5309">
      <stop
         style="stop-color:#009800;stop-opacity:1;"
         offset="0"
         id="stop5311" />
      <stop
         style="stop-color:#009b00;stop-opacity:1;"
         offset="1"
         id="stop5313" />
    </linearGradient>
    <linearGradient
       id="linearGradient5299">
      <stop
         style="stop-color:#00cc00;stop-opacity:1;"
         offset="0"
         id="stop5301" />
      <stop
         style="stop-color:#007200;stop-opacity:1;"
         offset="1"
         id="stop5303" />
    </linearGradient>
    <linearGradient
       id="linearGradient3614">
      <stop
         style="stop-color:#cce8ff;stop-opacity:1;"
         offset="0"
         id="stop3616" />
      <stop
         style="stop-color:#0033ff;stop-opacity:1;"
         offset="1"
         id="stop3618" />
    </linearGradient>
    <inkscape:perspective
       sodipodi:type="inkscape:persp3d"
       inkscape:vp_x="0 : 526.18109 : 1"
       inkscape:vp_y="0 : 1000 : 0"
       inkscape:vp_z="744.09448 : 526.18109 : 1"
       inkscape:persp3d-origin="372.04724 : 350.78739 : 1"
       id="perspective10" />
    <radialGradient
       inkscape:collect="always"
       xlink:href="#linearGradient3614"
       id="radialGradient3620"
       cx="150.71428"
       cy="53.79076"
       fx="150.71428"
       fy="53.79076"
       r="73.571426"
       gradientUnits="userSpaceOnUse"
       gradientTransform="matrix(0,1,-1,0,204.50504,-96.923523)" />
    <inkscape:perspective
       id="perspective3636"
       inkscape:persp3d-origin="0.5 : 0.33333333 : 1"
       inkscape:vp_z="1 : 0.5 : 1"
       inkscape:vp_y="0 : 1000 : 0"
       inkscape:vp_x="0 : 0.5 : 1"
       sodipodi:type="inkscape:persp3d" />
    <radialGradient
       inkscape:collect="always"
       xlink:href="#linearGradient3614-4"
       id="radialGradient3620-7"
       cx="150.71428"
       cy="53.79076"
       fx="150.71428"
       fy="53.79076"
       r="73.571426"
       gradientUnits="userSpaceOnUse"
       gradientTransform="matrix(0,1,-1,0,204.50504,-96.923523)" />
    <linearGradient
       id="linearGradient3614-4">
      <stop
         style="stop-color:#00bfff;stop-opacity:1;"
         offset="0"
         id="stop3616-5" />
      <stop
         style="stop-color:#0039e5;stop-opacity:1;"
         offset="1"
         id="stop3618-3" />
    </linearGradient>
    <inkscape:perspective
       id="perspective3674"
       inkscape:persp3d-origin="0.5 : 0.33333333 : 1"
       inkscape:vp_z="1 : 0.5 : 1"
       inkscape:vp_y="0 : 1000 : 0"
       inkscape:vp_x="0 : 0.5 : 1"
       sodipodi:type="inkscape:persp3d" />
    <radialGradient
       inkscape:collect="always"
       xlink:href="#linearGradient3614-9"
       id="radialGradient3620-9"
       cx="150.71428"
       cy="53.79076"
       fx="150.71428"
       fy="53.79076"
       r="73.571426"
       gradientUnits="userSpaceOnUse"
       gradientTransform="matrix(0,1,-1,0,204.50504,-96.923523)" />
    <linearGradient
       id="linearGradient3614-9">
      <stop
         style="stop-color:#00bfff;stop-opacity:1;"
         offset="0"
         id="stop3616-52" />
      <stop
         style="stop-color:#0039e5;stop-opacity:1;"
         offset="1"
         id="stop3618-0" />
    </linearGradient>
    <inkscape:perspective
       id="perspective3674-3"
       inkscape:persp3d-origin="0.5 : 0.33333333 : 1"
       inkscape:vp_z="1 : 0.5 : 1"
       inkscape:vp_y="0 : 1000 : 0"
       inkscape:vp_x="0 : 0.5 : 1"
       sodipodi:type="inkscape:persp3d" />
    <radialGradient
       inkscape:collect="always"
       xlink:href="#linearGradient3614-96"
       id="radialGradient3620-5"
       cx="150.71428"
       cy="53.79076"
       fx="150.71428"
       fy="53.79076"
       r="73.571426"
       gradientUnits="userSpaceOnUse"
       gradientTransform="matrix(0,1,-1,0,204.50504,-96.923523)" />
    <linearGradient
       id="linearGradient3614-96">
      <stop
         style="stop-color:#00bfff;stop-opacity:1;"
         offset="0"
         id="stop3616-56" />
      <stop
         style="stop-color:#0039e5;stop-opacity:1;"
         offset="1"
         id="stop3618-30" />
    </linearGradient>
    <inkscape:perspective
       id="perspective3674-7"
       inkscape:persp3d-origin="0.5 : 0.33333333 : 1"
       inkscape:vp_z="1 : 0.5 : 1"
       inkscape:vp_y="0 : 1000 : 0"
       inkscape:vp_x="0 : 0.5 : 1"
       sodipodi:type="inkscape:persp3d" />
    <radialGradient
       inkscape:collect="always"
       xlink:href="#linearGradient3614-7"
       id="radialGradient3620-4"
       cx="150.71428"
       cy="53.79076"
       fx="150.71428"
       fy="53.79076"
       r="73.571426"
       gradientUnits="userSpaceOnUse"
       gradientTransform="matrix(0,1,-1,0,204.50504,-96.923523)" />
    <linearGradient
       id="linearGradient3614-7">
      <stop
         style="stop-color:#00bfff;stop-opacity:1;"
         offset="0"
         id="stop3616-3" />
      <stop
         style="stop-color:#0039e5;stop-opacity:1;"
         offset="1"
         id="stop3618-01" />
    </linearGradient>
    <inkscape:perspective
       id="perspective3674-5"
       inkscape:persp3d-origin="0.5 : 0.33333333 : 1"
       inkscape:vp_z="1 : 0.5 : 1"
       inkscape:vp_y="0 : 1000 : 0"
       inkscape:vp_x="0 : 0.5 : 1"
       sodipodi:type="inkscape:persp3d" />
    <radialGradient
       inkscape:collect="always"
       xlink:href="#linearGradient3614-8"
       id="radialGradient3620-78"
       cx="150.71428"
       cy="53.79076"
       fx="150.71428"
       fy="53.79076"
       r="73.571426"
       gradientUnits="userSpaceOnUse"
       gradientTransform="matrix(0,1,-1,0,204.50504,-96.923523)" />
    <linearGradient
       id="linearGradient3614-8">
      <stop
         style="stop-color:#00bfff;stop-opacity:1;"
         offset="0"
         id="stop3616-9" />
      <stop
         style="stop-color:#0039e5;stop-opacity:1;"
         offset="1"
         id="stop3618-07" />
    </linearGradient>
    <inkscape:perspective
       id="perspective3674-1"
       inkscape:persp3d-origin="0.5 : 0.33333333 : 1"
       inkscape:vp_z="1 : 0.5 : 1"
       inkscape:vp_y="0 : 1000 : 0"
       inkscape:vp_x="0 : 0.5 : 1"
       sodipodi:type="inkscape:persp3d" />
    <radialGradient
       inkscape:collect="always"
       xlink:href="#linearGradient3614-3"
       id="radialGradient3620-0"
       cx="150.71428"
       cy="53.79076"
       fx="150.71428"
       fy="53.79076"
       r="73.571426"
       gradientUnits="userSpaceOnUse"
       gradientTransform="matrix(0,1,-1,0,204.50504,-96.923523)" />
    <linearGradient
       id="linearGradient3614-3">
      <stop
         style="stop-color:#00bfff;stop-opacity:1;"
         offset="0"
         id="stop3616-6" />
      <stop
         style="stop-color:#0039e5;stop-opacity:1;"
         offset="1"
         id="stop3618-7" />
    </linearGradient>
    <inkscape:perspective
       id="perspective4722"
       inkscape:persp3d-origin="0.5 : 0.33333333 : 1"
       inkscape:vp_z="1 : 0.5 : 1"
       inkscape:vp_y="0 : 1000 : 0"
       inkscape:vp_x="0 : 0.5 : 1"
       sodipodi:type="inkscape:persp3d" />
    <radialGradient
       inkscape:collect="always"
       xlink:href="#linearGradient3614-6"
       id="radialGradient3620-8"
       cx="150.71428"
       cy="53.79076"
       fx="150.71428"
       fy="53.79076"
       r="73.571426"
       gradientUnits="userSpaceOnUse"
       gradientTransform="matrix(0,1,-1,0,204.50504,-96.923523)" />
    <linearGradient
       id="linearGradient3614-6">
      <stop
         style="stop-color:#cce8ff;stop-opacity:1;"
         offset="0"
         id="stop3616-2" />
      <stop
         style="stop-color:#0033ff;stop-opacity:1;"
         offset="1"
         id="stop3618-5" />
    </linearGradient>
    <radialGradient
       r="73.571426"
       fy="53.79076"
       fx="150.71428"
       cy="53.79076"
       cx="150.71428"
       gradientTransform="matrix(0,1,-1,0,204.50504,-96.923523)"
       gradientUnits="userSpaceOnUse"
       id="radialGradient4731"
       xlink:href="#linearGradient3614-6"
       inkscape:collect="always" />
    <inkscape:perspective
       id="perspective4760"
       inkscape:persp3d-origin="0.5 : 0.33333333 : 1"
       inkscape:vp_z="1 : 0.5 : 1"
       inkscape:vp_y="0 : 1000 : 0"
       inkscape:vp_x="0 : 0.5 : 1"
       sodipodi:type="inkscape:persp3d" />
    <radialGradient
       r="73.571426"
       fy="53.79076"
       fx="150.71428"
       cy="53.79076"
       cx="150.71428"
       gradientTransform="matrix(0,1,-1,0,204.50504,-96.923523)"
       gradientUnits="userSpaceOnUse"
       id="radialGradient4731-0"
       xlink:href="#linearGradient3614-6-0"
       inkscape:collect="always" />
    <linearGradient
       id="linearGradient3614-6-0">
      <stop
         style="stop-color:#cce8ff;stop-opacity:1;"
         offset="0"
         id="stop3616-2-0" />
      <stop
         style="stop-color:#0033ff;stop-opacity:1;"
         offset="1"
         id="stop3618-5-8" />
    </linearGradient>
    <radialGradient
       r="73.571426"
       fy="53.79076"
       fx="150.71428"
       cy="53.79076"
       cx="150.71428"
       gradientTransform="matrix(0,1,-1,0,204.50504,-96.923523)"
       gradientUnits="userSpaceOnUse"
       id="radialGradient4769"
       xlink:href="#linearGradient3614-6-0"
       inkscape:collect="always" />
    <inkscape:perspective
       id="perspective4798"
       inkscape:persp3d-origin="0.5 : 0.33333333 : 1"
       inkscape:vp_z="1 : 0.5 : 1"
       inkscape:vp_y="0 : 1000 : 0"
       inkscape:vp_x="0 : 0.5 : 1"
       sodipodi:type="inkscape:persp3d" />
    <radialGradient
       r="73.571426"
       fy="53.79076"
       fx="150.71428"
       cy="53.79076"
       cx="150.71428"
       gradientTransform="matrix(0,1,-1,0,204.50504,-96.923523)"
       gradientUnits="userSpaceOnUse"
       id="radialGradient4769-1"
       xlink:href="#linearGradient3614-6-0-9"
       inkscape:collect="always" />
    <linearGradient
       id="linearGradient3614-6-0-9">
      <stop
         style="stop-color:#cce8ff;stop-opacity:1;"
         offset="0"
         id="stop3616-2-0-9" />
      <stop
         style="stop-color:#0033ff;stop-opacity:1;"
         offset="1"
         id="stop3618-5-8-3" />
    </linearGradient>
    <radialGradient
       r="73.571426"
       fy="53.79076"
       fx="150.71428"
       cy="53.79076"
       cx="150.71428"
       gradientTransform="matrix(0,1,-1,0,204.50504,-96.923523)"
       gradientUnits="userSpaceOnUse"
       id="radialGradient4731-9"
       xlink:href="#linearGradient3614-6-9"
       inkscape:collect="always" />
    <linearGradient
       id="linearGradient3614-6-9">
      <stop
         style="stop-color:#cce8ff;stop-opacity:1;"
         offset="0"
         id="stop3616-2-1" />
      <stop
         style="stop-color:#0033ff;stop-opacity:1;"
         offset="1"
         id="stop3618-5-2" />
    </linearGradient>
    <radialGradient
       inkscape:collect="always"
       xlink:href="#linearGradient3614-47"
       id="radialGradient3620-6"
       cx="150.71428"
       cy="53.79076"
       fx="150.71428"
       fy="53.79076"
       r="73.571426"
       gradientUnits="userSpaceOnUse"
       gradientTransform="matrix(0,1,-1,0,204.50504,-96.923523)" />
    <linearGradient
       id="linearGradient3614-47">
      <stop
         style="stop-color:#cce8ff;stop-opacity:1;"
         offset="0"
         id="stop3616-93" />
      <stop
         style="stop-color:#0033ff;stop-opacity:1;"
         offset="1"
         id="stop3618-2" />
    </linearGradient>
    <radialGradient
       r="73.571426"
       fy="53.79076"
       fx="150.71428"
       cy="53.79076"
       cx="150.71428"
       gradientTransform="matrix(0,1,-1,0,204.50504,-96.923523)"
       gradientUnits="userSpaceOnUse"
       id="radialGradient4817"
       xlink:href="#linearGradient3614-47"
       inkscape:collect="always" />
    <inkscape:perspective
       id="perspective4868"
       inkscape:persp3d-origin="0.5 : 0.33333333 : 1"
       inkscape:vp_z="1 : 0.5 : 1"
       inkscape:vp_y="0 : 1000 : 0"
       inkscape:vp_x="0 : 0.5 : 1"
       sodipodi:type="inkscape:persp3d" />
    <inkscape:perspective
       id="perspective4894"
       inkscape:persp3d-origin="0.5 : 0.33333333 : 1"
       inkscape:vp_z="1 : 0.5 : 1"
       inkscape:vp_y="0 : 1000 : 0"
       inkscape:vp_x="0 : 0.5 : 1"
       sodipodi:type="inkscape:persp3d" />
    <inkscape:perspective
       id="perspective4922"
       inkscape:persp3d-origin="0.5 : 0.33333333 : 1"
       inkscape:vp_z="1 : 0.5 : 1"
       inkscape:vp_y="0 : 1000 : 0"
       inkscape:vp_x="0 : 0.5 : 1"
       sodipodi:type="inkscape:persp3d" />
    <inkscape:perspective
       id="perspective4950"
       inkscape:persp3d-origin="0.5 : 0.33333333 : 1"
       inkscape:vp_z="1 : 0.5 : 1"
       inkscape:vp_y="0 : 1000 : 0"
       inkscape:vp_x="0 : 0.5 : 1"
       sodipodi:type="inkscape:persp3d" />
    <inkscape:perspective
       id="perspective4978"
       inkscape:persp3d-origin="0.5 : 0.33333333 : 1"
       inkscape:vp_z="1 : 0.5 : 1"
       inkscape:vp_y="0 : 1000 : 0"
       inkscape:vp_x="0 : 0.5 : 1"
       sodipodi:type="inkscape:persp3d" />
    <inkscape:perspective
       id="perspective5015"
       inkscape:persp3d-origin="0.5 : 0.33333333 : 1"
       inkscape:vp_z="1 : 0.5 : 1"
       inkscape:vp_y="0 : 1000 : 0"
       inkscape:vp_x="0 : 0.5 : 1"
       sodipodi:type="inkscape:persp3d" />
    <inkscape:perspective
       id="perspective5052"
       inkscape:persp3d-origin="0.5 : 0.33333333 : 1"
       inkscape:vp_z="1 : 0.5 : 1"
       inkscape:vp_y="0 : 1000 : 0"
       inkscape:vp_x="0 : 0.5 : 1"
       sodipodi:type="inkscape:persp3d" />
    <inkscape:perspective
       id="perspective5084"
       inkscape:persp3d-origin="0.5 : 0.33333333 : 1"
       inkscape:vp_z="1 : 0.5 : 1"
       inkscape:vp_y="0 : 1000 : 0"
       inkscape:vp_x="0 : 0.5 : 1"
       sodipodi:type="inkscape:persp3d" />
    <inkscape:perspective
       id="perspective5106"
       inkscape:persp3d-origin="0.5 : 0.33333333 : 1"
       inkscape:vp_z="1 : 0.5 : 1"
       inkscape:vp_y="0 : 1000 : 0"
       inkscape:vp_x="0 : 0.5 : 1"
       sodipodi:type="inkscape:persp3d" />
    <inkscape:perspective
       id="perspective5133"
       inkscape:persp3d-origin="0.5 : 0.33333333 : 1"
       inkscape:vp_z="1 : 0.5 : 1"
       inkscape:vp_y="0 : 1000 : 0"
       inkscape:vp_x="0 : 0.5 : 1"
       sodipodi:type="inkscape:persp3d" />
    <inkscape:perspective
       id="perspective5156"
       inkscape:persp3d-origin="0.5 : 0.33333333 : 1"
       inkscape:vp_z="1 : 0.5 : 1"
       inkscape:vp_y="0 : 1000 : 0"
       inkscape:vp_x="0 : 0.5 : 1"
       sodipodi:type="inkscape:persp3d" />
    <inkscape:perspective
       id="perspective5242"
       inkscape:persp3d-origin="0.5 : 0.33333333 : 1"
       inkscape:vp_z="1 : 0.5 : 1"
       inkscape:vp_y="0 : 1000 : 0"
       inkscape:vp_x="0 : 0.5 : 1"
       sodipodi:type="inkscape:persp3d" />
    <inkscape:perspective
       id="perspective5268"
       inkscape:persp3d-origin="0.5 : 0.33333333 : 1"
       inkscape:vp_z="1 : 0.5 : 1"
       inkscape:vp_y="0 : 1000 : 0"
       inkscape:vp_x="0 : 0.5 : 1"
       sodipodi:type="inkscape:persp3d" />
    <linearGradient
       inkscape:collect="always"
       xlink:href="#linearGradient5299"
       id="linearGradient5307"
       x1="348.92603"
       y1="168.06653"
       x2="348.92603"
       y2="202.06653"
       gradientUnits="userSpaceOnUse"
       gradientTransform="translate(0.7690943,-0.13293533)" />
    <linearGradient
       inkscape:collect="always"
       xlink:href="#linearGradient5317"
       id="linearGradient5323"
       x1="376.55826"
       y1="168.23293"
       x2="363.77594"
       y2="202.06653"
       gradientUnits="userSpaceOnUse"
       gradientTransform="translate(0.7690943,-0.13293533)" />
    <linearGradient
       inkscape:collect="always"
       xlink:href="#linearGradient5325"
       id="linearGradient5331"
       x1="322.66211"
       y1="167.86316"
       x2="334.94711"
       y2="202.06653"
       gradientUnits="userSpaceOnUse"
       gradientTransform="translate(0.7690943,-0.13293533)" />
    <inkscape:perspective
       id="perspective5341"
       inkscape:persp3d-origin="0.5 : 0.33333333 : 1"
       inkscape:vp_z="1 : 0.5 : 1"
       inkscape:vp_y="0 : 1000 : 0"
       inkscape:vp_x="0 : 0.5 : 1"
       sodipodi:type="inkscape:persp3d" />
    <linearGradient
       inkscape:collect="always"
       xlink:href="#linearGradient5299-4"
       id="linearGradient5307-1"
       x1="348.92603"
       y1="168.06653"
       x2="348.92603"
       y2="202.06653"
       gradientUnits="userSpaceOnUse" />
    <linearGradient
       id="linearGradient5299-4">
      <stop
         style="stop-color:#00cc00;stop-opacity:1;"
         offset="0"
         id="stop5301-8" />
      <stop
         style="stop-color:#007200;stop-opacity:1;"
         offset="1"
         id="stop5303-7" />
    </linearGradient>
    <linearGradient
       gradientTransform="matrix(-1,0,0,-1,747.93205,370.00013)"
       y2="168.06653"
       x2="348.92603"
       y1="202.06653"
       x1="348.92603"
       gradientUnits="userSpaceOnUse"
       id="linearGradient5350"
       xlink:href="#linearGradient5299-4"
       inkscape:collect="always" />
    <inkscape:perspective
       id="perspective5393"
       inkscape:persp3d-origin="0.5 : 0.33333333 : 1"
       inkscape:vp_z="1 : 0.5 : 1"
       inkscape:vp_y="0 : 1000 : 0"
       inkscape:vp_x="0 : 0.5 : 1"
       sodipodi:type="inkscape:persp3d" />
    <linearGradient
       inkscape:collect="always"
       xlink:href="#linearGradient5418"
       id="linearGradient5439"
       gradientUnits="userSpaceOnUse"
       x1="358.70517"
       y1="776.24896"
       x2="372.20352"
       y2="778.47119" />
    <inkscape:perspective
       id="perspective5459"
       inkscape:persp3d-origin="0.5 : 0.33333333 : 1"
       inkscape:vp_z="1 : 0.5 : 1"
       inkscape:vp_y="0 : 1000 : 0"
       inkscape:vp_x="0 : 0.5 : 1"
       sodipodi:type="inkscape:persp3d" />
    <inkscape:perspective
       id="perspective5481"
       inkscape:persp3d-origin="0.5 : 0.33333333 : 1"
       inkscape:vp_z="1 : 0.5 : 1"
       inkscape:vp_y="0 : 1000 : 0"
       inkscape:vp_x="0 : 0.5 : 1"
       sodipodi:type="inkscape:persp3d" />
    <inkscape:perspective
       id="perspective5517"
       inkscape:persp3d-origin="0.5 : 0.33333333 : 1"
       inkscape:vp_z="1 : 0.5 : 1"
       inkscape:vp_y="0 : 1000 : 0"
       inkscape:vp_x="0 : 0.5 : 1"
       sodipodi:type="inkscape:persp3d" />
    <inkscape:perspective
       id="perspective5566"
       inkscape:persp3d-origin="0.5 : 0.33333333 : 1"
       inkscape:vp_z="1 : 0.5 : 1"
       inkscape:vp_y="0 : 1000 : 0"
       inkscape:vp_x="0 : 0.5 : 1"
       sodipodi:type="inkscape:persp3d" />
    <inkscape:perspective
       id="perspective5588"
       inkscape:persp3d-origin="0.5 : 0.33333333 : 1"
       inkscape:vp_z="1 : 0.5 : 1"
       inkscape:vp_y="0 : 1000 : 0"
       inkscape:vp_x="0 : 0.5 : 1"
       sodipodi:type="inkscape:persp3d" />
    <inkscape:perspective
       id="perspective5733"
       inkscape:persp3d-origin="0.5 : 0.33333333 : 1"
       inkscape:vp_z="1 : 0.5 : 1"
       inkscape:vp_y="0 : 1000 : 0"
       inkscape:vp_x="0 : 0.5 : 1"
       sodipodi:type="inkscape:persp3d" />
    <inkscape:perspective
       id="perspective5803"
       inkscape:persp3d-origin="0.5 : 0.33333333 : 1"
       inkscape:vp_z="1 : 0.5 : 1"
       inkscape:vp_y="0 : 1000 : 0"
       inkscape:vp_x="0 : 0.5 : 1"
       sodipodi:type="inkscape:persp3d" />
    <radialGradient
       inkscape:collect="always"
       xlink:href="#linearGradient5921"
       id="radialGradient5929"
       cx="644.67236"
       cy="169.383"
       fx="644.67236"
       fy="169.383"
       r="17"
       gradientTransform="matrix(-2.2439403e-7,1.9999893,-0.99999473,-1.1219701e-7,812.96544,-1119.9841)"
       gradientUnits="userSpaceOnUse" />
    <inkscape:perspective
       id="perspective5943"
       inkscape:persp3d-origin="0.5 : 0.33333333 : 1"
       inkscape:vp_z="1 : 0.5 : 1"
       inkscape:vp_y="0 : 1000 : 0"
       inkscape:vp_x="0 : 0.5 : 1"
       sodipodi:type="inkscape:persp3d" />
    <radialGradient
       inkscape:collect="always"
       xlink:href="#linearGradient5921-1"
       id="radialGradient5929-1"
       cx="644.67236"
       cy="169.383"
       fx="644.67236"
       fy="169.383"
       r="17"
       gradientTransform="matrix(-2.2439403e-7,1.9999893,-0.99999473,-1.1219701e-7,812.96544,-1119.9547)"
       gradientUnits="userSpaceOnUse" />
    <linearGradient
       id="linearGradient5921-1">
      <stop
         style="stop-color:#00cc00;stop-opacity:1;"
         offset="0"
         id="stop5923-3" />
      <stop
         style="stop-color:#008000;stop-opacity:1;"
         offset="1"
         id="stop5925-4" />
    </linearGradient>
    <radialGradient
       r="17"
       fy="169.383"
       fx="644.67236"
       cy="169.383"
       cx="644.67236"
       gradientTransform="matrix(-2.2439403e-7,1.9999893,-0.99999473,-1.1219701e-7,849.1784,-1119.9842)"
       gradientUnits="userSpaceOnUse"
       id="radialGradient5954"
       xlink:href="#linearGradient5921-1"
       inkscape:collect="always" />
    <inkscape:perspective
       id="perspective5987"
       inkscape:persp3d-origin="0.5 : 0.33333333 : 1"
       inkscape:vp_z="1 : 0.5 : 1"
       inkscape:vp_y="0 : 1000 : 0"
       inkscape:vp_x="0 : 0.5 : 1"
       sodipodi:type="inkscape:persp3d" />
    <radialGradient
       r="17"
       fy="169.383"
       fx="644.67236"
       cy="169.383"
       cx="644.67236"
       gradientTransform="matrix(-2.2439403e-7,1.9999893,-0.99999473,-1.1219701e-7,922.75572,-1119.9842)"
       gradientUnits="userSpaceOnUse"
       id="radialGradient5954-2"
       xlink:href="#linearGradient5921-1-0"
       inkscape:collect="always" />
    <linearGradient
       id="linearGradient5921-1-0">
      <stop
         style="stop-color:#00cc00;stop-opacity:1;"
         offset="0"
         id="stop5923-3-1" />
      <stop
         style="stop-color:#008000;stop-opacity:1;"
         offset="1"
         id="stop5925-4-9" />
    </linearGradient>
    <radialGradient
       inkscape:collect="always"
       xlink:href="#linearGradient5921-19"
       id="radialGradient5929-2"
       cx="644.67236"
       cy="169.383"
       fx="644.67236"
       fy="169.383"
       r="17"
       gradientTransform="matrix(-2.2439403e-7,1.9999893,-0.99999473,-1.1219701e-7,812.96544,-1119.9547)"
       gradientUnits="userSpaceOnUse" />
    <linearGradient
       id="linearGradient5921-19">
      <stop
         style="stop-color:#00cc00;stop-opacity:1;"
         offset="0"
         id="stop5923-7" />
      <stop
         style="stop-color:#008000;stop-opacity:1;"
         offset="1"
         id="stop5925-0" />
    </linearGradient>
    <radialGradient
       r="17"
       fy="169.383"
       fx="644.67236"
       cy="169.383"
       cx="644.67236"
       gradientTransform="matrix(-2.2439403e-7,1.9999893,-0.99999473,-1.1219701e-7,886.54276,-1119.9841)"
       gradientUnits="userSpaceOnUse"
       id="radialGradient6005"
       xlink:href="#linearGradient5921-19"
       inkscape:collect="always" />
    <inkscape:perspective
       id="perspective5987-0"
       inkscape:persp3d-origin="0.5 : 0.33333333 : 1"
       inkscape:vp_z="1 : 0.5 : 1"
       inkscape:vp_y="0 : 1000 : 0"
       inkscape:vp_x="0 : 0.5 : 1"
       sodipodi:type="inkscape:persp3d" />
    <radialGradient
       r="17"
       fy="169.383"
       fx="644.67236"
       cy="169.383"
       cx="644.67236"
       gradientTransform="matrix(-2.2439403e-7,1.9999893,-0.99999473,-1.1219701e-7,997.80451,-1119.9842)"
       gradientUnits="userSpaceOnUse"
       id="radialGradient5954-7"
       xlink:href="#linearGradient5921-1-3"
       inkscape:collect="always" />
    <linearGradient
       id="linearGradient5921-1-3">
      <stop
         style="stop-color:#00cc00;stop-opacity:1;"
         offset="0"
         id="stop5923-3-6" />
      <stop
         style="stop-color:#008000;stop-opacity:1;"
         offset="1"
         id="stop5925-4-0" />
    </linearGradient>
    <radialGradient
       inkscape:collect="always"
       xlink:href="#linearGradient5921-9"
       id="radialGradient5929-6"
       cx="644.67236"
       cy="169.383"
       fx="644.67236"
       fy="169.383"
       r="17"
       gradientTransform="matrix(-2.2439403e-7,1.9999893,-0.99999473,-1.1219701e-7,812.96544,-1119.9547)"
       gradientUnits="userSpaceOnUse" />
    <linearGradient
       id="linearGradient5921-9">
      <stop
         style="stop-color:#00cc00;stop-opacity:1;"
         offset="0"
         id="stop5923-4" />
      <stop
         style="stop-color:#008000;stop-opacity:1;"
         offset="1"
         id="stop5925-2" />
    </linearGradient>
    <radialGradient
       r="17"
       fy="169.383"
       fx="644.67236"
       cy="169.383"
       cx="644.67236"
       gradientTransform="matrix(-2.2439403e-7,1.9999893,-0.99999473,-1.1219701e-7,961.59155,-1119.9841)"
       gradientUnits="userSpaceOnUse"
       id="radialGradient6005-7"
       xlink:href="#linearGradient5921-9"
       inkscape:collect="always" />
    <linearGradient
       inkscape:collect="always"
       xlink:href="#linearGradient5548"
       id="linearGradient11783"
       gradientUnits="userSpaceOnUse"
       x1="69.76622"
       y1="709.77161"
       x2="69.042839"
       y2="739.82892"
       gradientTransform="matrix(1.0631887,0,0,0.80283376,367.28546,205.0959)" />
    <linearGradient
       inkscape:collect="always"
       xlink:href="#linearGradient5540"
       id="linearGradient11790"
       gradientUnits="userSpaceOnUse"
       gradientTransform="matrix(1.0631887,0,0,0.80283376,403.93984,-392.97048)"
       x1="68.930084"
       y1="710.4093"
       x2="69.042839"
       y2="739.82892" />
    <linearGradient
       inkscape:collect="always"
       xlink:href="#linearGradient5548"
       id="linearGradient12606"
       gradientUnits="userSpaceOnUse"
       gradientTransform="matrix(1.1257292,0,0,0.85005925,440.11033,-427.96484)"
       x1="69.76622"
       y1="709.77161"
       x2="69.042839"
       y2="739.82892" />
    <linearGradient
       inkscape:collect="always"
       xlink:href="#linearGradient5548"
       id="linearGradient12612"
       gradientUnits="userSpaceOnUse"
       gradientTransform="matrix(1.1257292,0,0,0.85005925,440.11033,-427.96484)"
       x1="69.76622"
       y1="709.77161"
       x2="69.042839"
       y2="739.82892" />
  </defs>
  <sodipodi:namedview
     id="base"
     pagecolor="#ffffff"
     bordercolor="#666666"
     borderopacity="1.0"
     inkscape:pageopacity="0.0"
     inkscape:pageshadow="2"
     inkscape:zoom="2.6004613"
     inkscape:cx="445.06927"
     inkscape:cy="77.753675"
     inkscape:document-units="px"
     inkscape:current-layer="layer1"
     showgrid="false"
     inkscape:window-width="1680"
     inkscape:window-height="973"
     inkscape:window-x="-4"
     inkscape:window-y="21"
     inkscape:window-maximized="1" />
  <metadata
     id="metadata7">
    <rdf:RDF>
      <cc:Work
         rdf:about="">
        <dc:format>image/svg+xml</dc:format>
        <dc:type
           rdf:resource="http://purl.org/dc/dcmitype/StillImage" />
        <dc:title></dc:title>
      </cc:Work>
    </rdf:RDF>
  </metadata>
  <g
     inkscape:label="Layer 1"
     inkscape:groupmode="layer"
     id="layer1"
     transform="translate(-76.142852,598.0664)">
    <g
       id="g5213"
       transform="translate(0.7690943,-1.0333714e-5)">
      <path
         transform="matrix(0.21747573,0,0,0.21747573,60.366154,157.23542)"
         d="m 224.28571,127.36218 c 0,40.63238 -32.93905,73.57143 -73.57143,73.57143 -40.63238,0 -73.571427,-32.93905 -73.571427,-73.57143 0,-40.632374 32.939047,-73.571424 73.571427,-73.571424 40.63238,0 73.57143,32.93905 73.57143,73.571424 z"
         sodipodi:ry="73.571426"
         sodipodi:rx="73.571426"
         sodipodi:cy="127.36218"
         sodipodi:cx="150.71428"
         id="path3612"
         style="fill:url(#radialGradient3620);fill-opacity:1;stroke:#0000ff;stroke-width:9.1964283;stroke-miterlimit:4;stroke-opacity:1;stroke-dasharray:none"
         sodipodi:type="arc" />
      <g
         id="g4882">
        <path
           sodipodi:type="arc"
           style="fill:#ffffff;fill-opacity:1;stroke:none"
           id="path4858"
           sodipodi:cx="15.278557"
           sodipodi:cy="774.99872"
           sodipodi:rx="0.88388348"
           sodipodi:ry="1.5152289"
           d="m 16.16244,774.99872 c 0,0.83684 -0.395728,1.51523 -0.883883,1.51523 -0.488156,0 -0.883884,-0.67839 -0.883884,-1.51523 0,-0.83684 0.395728,-1.51523 0.883884,-1.51523 0.488155,0 0.883883,0.67839 0.883883,1.51523 z"
           transform="matrix(3.3941122,0,0,1.9798989,41.61327,-1357.4855)" />
        <path
           sodipodi:type="arc"
           style="fill:#ffffff;fill-opacity:1;stroke:none"
           id="path4858-8"
           sodipodi:cx="15.278557"
           sodipodi:cy="774.99872"
           sodipodi:rx="0.88388348"
           sodipodi:ry="1.5152289"
           d="m 16.16244,774.99872 c 0,0.83684 -0.395728,1.51523 -0.883883,1.51523 -0.488156,0 -0.883884,-0.67839 -0.883884,-1.51523 0,-0.83684 0.395728,-1.51523 0.883884,-1.51523 0.488155,0 0.883883,0.67839 0.883883,1.51523 z"
           transform="matrix(3.3941122,0,0,1.9798989,41.61327,-1341.4855)" />
      </g>
    </g>
    <g
       id="g5198"
       transform="translate(0.7690943,-1.0333714e-5)">
      <path
         transform="matrix(0.21747573,0,0,0.21747573,139.58319,157.23542)"
         d="m 224.28571,127.36218 c 0,40.63238 -32.93905,73.57143 -73.57143,73.57143 -40.63238,0 -73.571427,-32.93905 -73.571427,-73.57143 0,-40.632374 32.939047,-73.571424 73.571427,-73.571424 40.63238,0 73.57143,32.93905 73.57143,73.571424 z"
         sodipodi:ry="73.571426"
         sodipodi:rx="73.571426"
         sodipodi:cy="127.36218"
         sodipodi:cx="150.71428"
         id="path3612-1-2"
         style="fill:url(#radialGradient4769);fill-opacity:1;stroke:#0000ff;stroke-width:9.1964283;stroke-miterlimit:4;stroke-opacity:1;stroke-dasharray:none"
         sodipodi:type="arc" />
      <g
         id="g4882-9-1"
         transform="translate(72.762536,-9.7558595e-6)">
        <path
           sodipodi:type="arc"
           style="fill:#ffffff;fill-opacity:1;stroke:none"
           id="path4858-9-6"
           sodipodi:cx="15.278557"
           sodipodi:cy="774.99872"
           sodipodi:rx="0.88388348"
           sodipodi:ry="1.5152289"
           d="m 16.16244,774.99872 c 0,0.83684 -0.395728,1.51523 -0.883883,1.51523 -0.488156,0 -0.883884,-0.67839 -0.883884,-1.51523 0,-0.83684 0.395728,-1.51523 0.883884,-1.51523 0.488155,0 0.883883,0.67839 0.883883,1.51523 z"
           transform="matrix(3.3941122,0,0,1.9798989,41.61327,-1357.4855)" />
        <path
           sodipodi:type="arc"
           style="fill:#ffffff;fill-opacity:1;stroke:none"
           id="path4858-8-6-9"
           sodipodi:cx="15.278557"
           sodipodi:cy="774.99872"
           sodipodi:rx="0.88388348"
           sodipodi:ry="1.5152289"
           d="m 16.16244,774.99872 c 0,0.83684 -0.395728,1.51523 -0.883883,1.51523 -0.488156,0 -0.883884,-0.67839 -0.883884,-1.51523 0,-0.83684 0.395728,-1.51523 0.883884,-1.51523 0.488155,0 0.883883,0.67839 0.883883,1.51523 z"
           transform="matrix(3.3941122,0,0,1.9798989,41.61327,-1341.4855)" />
      </g>
      <g
         id="g4882-9-1-7"
         transform="translate(84.91815,-9.7558593e-6)">
        <path
           sodipodi:type="arc"
           style="fill:#ffffff;fill-opacity:1;stroke:none"
           id="path4858-9-6-0"
           sodipodi:cx="15.278557"
           sodipodi:cy="774.99872"
           sodipodi:rx="0.88388348"
           sodipodi:ry="1.5152289"
           d="m 16.16244,774.99872 c 0,0.83684 -0.395728,1.51523 -0.883883,1.51523 -0.488156,0 -0.883884,-0.67839 -0.883884,-1.51523 0,-0.83684 0.395728,-1.51523 0.883884,-1.51523 0.488155,0 0.883883,0.67839 0.883883,1.51523 z"
           transform="matrix(3.3941122,0,0,1.9798989,41.61327,-1357.4855)" />
        <path
           sodipodi:type="arc"
           style="fill:#ffffff;fill-opacity:1;stroke:none"
           id="path4858-8-6-9-5"
           sodipodi:cx="15.278557"
           sodipodi:cy="774.99872"
           sodipodi:rx="0.88388348"
           sodipodi:ry="1.5152289"
           d="m 16.16244,774.99872 c 0,0.83684 -0.395728,1.51523 -0.883883,1.51523 -0.488156,0 -0.883884,-0.67839 -0.883884,-1.51523 0,-0.83684 0.395728,-1.51523 0.883884,-1.51523 0.488155,0 0.883883,0.67839 0.883883,1.51523 z"
           transform="matrix(3.3941122,0,0,1.9798989,41.61327,-1341.4855)" />
      </g>
    </g>
    <g
       id="g5207"
       transform="translate(0.7690943,-1.0333714e-5)">
      <path
         transform="matrix(0.21747573,0,0,0.21747573,97.914392,157.23542)"
         d="m 224.28571,127.36218 c 0,40.63238 -32.93905,73.57143 -73.57143,73.57143 -40.63238,0 -73.571427,-32.93905 -73.571427,-73.57143 0,-40.632374 32.939047,-73.571424 73.571427,-73.571424 40.63238,0 73.57143,32.93905 73.57143,73.571424 z"
         sodipodi:ry="73.571426"
         sodipodi:rx="73.571426"
         sodipodi:cy="127.36218"
         sodipodi:cx="150.71428"
         id="path3612-1"
         style="fill:url(#radialGradient4731);fill-opacity:1;stroke:#0000ff;stroke-width:9.1964283;stroke-miterlimit:4;stroke-opacity:1;stroke-dasharray:none"
         sodipodi:type="arc" />
      <path
         transform="matrix(3.3941122,0,0,1.9798989,78.994971,-1357.4855)"
         d="m 16.16244,774.99872 c 0,0.83684 -0.395728,1.51523 -0.883883,1.51523 -0.488156,0 -0.883884,-0.67839 -0.883884,-1.51523 0,-0.83684 0.395728,-1.51523 0.883884,-1.51523 0.488155,0 0.883883,0.67839 0.883883,1.51523 z"
         sodipodi:ry="1.5152289"
         sodipodi:rx="0.88388348"
         sodipodi:cy="774.99872"
         sodipodi:cx="15.278557"
         id="path4858-9"
         style="fill:#ffffff;fill-opacity:1;stroke:none"
         sodipodi:type="arc" />
      <path
         transform="matrix(3.3941122,0,0,1.9798989,78.994971,-1341.4855)"
         d="m 16.16244,774.99872 c 0,0.83684 -0.395728,1.51523 -0.883883,1.51523 -0.488156,0 -0.883884,-0.67839 -0.883884,-1.51523 0,-0.83684 0.395728,-1.51523 0.883884,-1.51523 0.488155,0 0.883883,0.67839 0.883883,1.51523 z"
         sodipodi:ry="1.5152289"
         sodipodi:rx="0.88388348"
         sodipodi:cy="774.99872"
         sodipodi:cx="15.278557"
         id="path4858-8-6"
         style="fill:#ffffff;fill-opacity:1;stroke:none"
         sodipodi:type="arc" />
      <path
         transform="matrix(3.3941122,0,0,1.9798989,78.913071,-1349.4855)"
         d="m 16.16244,774.99872 c 0,0.83684 -0.395728,1.51523 -0.883883,1.51523 -0.488156,0 -0.883884,-0.67839 -0.883884,-1.51523 0,-0.83684 0.395728,-1.51523 0.883884,-1.51523 0.488155,0 0.883883,0.67839 0.883883,1.51523 z"
         sodipodi:ry="1.5152289"
         sodipodi:rx="0.88388348"
         sodipodi:cy="774.99872"
         sodipodi:cx="15.278557"
         id="path4858-9-61"
         style="fill:#ffffff;fill-opacity:1;stroke:none"
         sodipodi:type="arc" />
    </g>
    <g
       id="g5188"
       transform="translate(0.7690943,-1.0333714e-5)">
      <path
         transform="matrix(0.21747573,0,0,0.21747573,180.53433,157.23542)"
         d="m 224.28571,127.36218 c 0,40.63238 -32.93905,73.57143 -73.57143,73.57143 -40.63238,0 -73.571427,-32.93905 -73.571427,-73.57143 0,-40.632374 32.939047,-73.571424 73.571427,-73.571424 40.63238,0 73.57143,32.93905 73.57143,73.571424 z"
         sodipodi:ry="73.571426"
         sodipodi:rx="73.571426"
         sodipodi:cy="127.36218"
         sodipodi:cx="150.71428"
         id="path3612-8"
         style="fill:url(#radialGradient4817);fill-opacity:1;stroke:#0000ff;stroke-width:9.1964283;stroke-miterlimit:4;stroke-opacity:1;stroke-dasharray:none"
         sodipodi:type="arc" />
      <g
         id="g4882-9-1-1"
         transform="translate(114.18677,-9.7558595e-6)">
        <path
           sodipodi:type="arc"
           style="fill:#ffffff;fill-opacity:1;stroke:none"
           id="path4858-9-6-9"
           sodipodi:cx="15.278557"
           sodipodi:cy="774.99872"
           sodipodi:rx="0.88388348"
           sodipodi:ry="1.5152289"
           d="m 16.16244,774.99872 c 0,0.83684 -0.395728,1.51523 -0.883883,1.51523 -0.488156,0 -0.883884,-0.67839 -0.883884,-1.51523 0,-0.83684 0.395728,-1.51523 0.883884,-1.51523 0.488155,0 0.883883,0.67839 0.883883,1.51523 z"
           transform="matrix(3.3941122,0,0,1.9798989,41.61327,-1357.4855)" />
        <path
           sodipodi:type="arc"
           style="fill:#ffffff;fill-opacity:1;stroke:none"
           id="path4858-8-6-9-9"
           sodipodi:cx="15.278557"
           sodipodi:cy="774.99872"
           sodipodi:rx="0.88388348"
           sodipodi:ry="1.5152289"
           d="m 16.16244,774.99872 c 0,0.83684 -0.395728,1.51523 -0.883883,1.51523 -0.488156,0 -0.883884,-0.67839 -0.883884,-1.51523 0,-0.83684 0.395728,-1.51523 0.883884,-1.51523 0.488155,0 0.883883,0.67839 0.883883,1.51523 z"
           transform="matrix(3.3941122,0,0,1.9798989,41.61327,-1341.4855)" />
      </g>
      <g
         id="g4882-9-1-7-6"
         transform="translate(126.34239,-9.7558595e-6)">
        <path
           sodipodi:type="arc"
           style="fill:#ffffff;fill-opacity:1;stroke:none"
           id="path4858-9-6-0-7"
           sodipodi:cx="15.278557"
           sodipodi:cy="774.99872"
           sodipodi:rx="0.88388348"
           sodipodi:ry="1.5152289"
           d="m 16.16244,774.99872 c 0,0.83684 -0.395728,1.51523 -0.883883,1.51523 -0.488156,0 -0.883884,-0.67839 -0.883884,-1.51523 0,-0.83684 0.395728,-1.51523 0.883884,-1.51523 0.488155,0 0.883883,0.67839 0.883883,1.51523 z"
           transform="matrix(3.3941122,0,0,1.9798989,41.61327,-1357.4855)" />
        <path
           sodipodi:type="arc"
           style="fill:#ffffff;fill-opacity:1;stroke:none"
           id="path4858-8-6-9-5-9"
           sodipodi:cx="15.278557"
           sodipodi:cy="774.99872"
           sodipodi:rx="0.88388348"
           sodipodi:ry="1.5152289"
           d="m 16.16244,774.99872 c 0,0.83684 -0.395728,1.51523 -0.883883,1.51523 -0.488156,0 -0.883884,-0.67839 -0.883884,-1.51523 0,-0.83684 0.395728,-1.51523 0.883884,-1.51523 0.488155,0 0.883883,0.67839 0.883883,1.51523 z"
           transform="matrix(3.3941122,0,0,1.9798989,41.61327,-1341.4855)" />
      </g>
      <path
         transform="matrix(3.3941122,0,0,1.9798989,161.55025,-1349.3831)"
         d="m 16.16244,774.99872 c 0,0.83684 -0.395728,1.51523 -0.883883,1.51523 -0.488156,0 -0.883884,-0.67839 -0.883884,-1.51523 0,-0.83684 0.395728,-1.51523 0.883884,-1.51523 0.488155,0 0.883883,0.67839 0.883883,1.51523 z"
         sodipodi:ry="1.5152289"
         sodipodi:rx="0.88388348"
         sodipodi:cy="774.99872"
         sodipodi:cx="15.278557"
         id="path4858-8-6-7"
         style="fill:#ffffff;fill-opacity:1;stroke:none"
         sodipodi:type="arc" />
    </g>
    <g
       id="g5177"
       transform="translate(0.7690943,-1.0333714e-5)">
      <path
         transform="matrix(0.21747573,0,0,0.21747573,218.08257,157.23542)"
         d="m 224.28571,127.36218 c 0,40.63238 -32.93905,73.57143 -73.57143,73.57143 -40.63238,0 -73.571427,-32.93905 -73.571427,-73.57143 0,-40.632374 32.939047,-73.571424 73.571427,-73.571424 40.63238,0 73.57143,32.93905 73.57143,73.571424 z"
         sodipodi:ry="73.571426"
         sodipodi:rx="73.571426"
         sodipodi:cy="127.36218"
         sodipodi:cx="150.71428"
         id="path3612-1-7"
         style="fill:url(#radialGradient4731-9);fill-opacity:1;stroke:#0000ff;stroke-width:9.1964283;stroke-miterlimit:4;stroke-opacity:1;stroke-dasharray:none"
         sodipodi:type="arc" />
      <g
         id="g4882-9-1-1-6"
         transform="translate(151.45991,-9.7558593e-6)">
        <path
           sodipodi:type="arc"
           style="fill:#ffffff;fill-opacity:1;stroke:none"
           id="path4858-9-6-9-2"
           sodipodi:cx="15.278557"
           sodipodi:cy="774.99872"
           sodipodi:rx="0.88388348"
           sodipodi:ry="1.5152289"
           d="m 16.16244,774.99872 c 0,0.83684 -0.395728,1.51523 -0.883883,1.51523 -0.488156,0 -0.883884,-0.67839 -0.883884,-1.51523 0,-0.83684 0.395728,-1.51523 0.883884,-1.51523 0.488155,0 0.883883,0.67839 0.883883,1.51523 z"
           transform="matrix(3.3941122,0,0,1.9798989,41.61327,-1357.4855)" />
        <path
           sodipodi:type="arc"
           style="fill:#ffffff;fill-opacity:1;stroke:none"
           id="path4858-8-6-9-9-7"
           sodipodi:cx="15.278557"
           sodipodi:cy="774.99872"
           sodipodi:rx="0.88388348"
           sodipodi:ry="1.5152289"
           d="m 16.16244,774.99872 c 0,0.83684 -0.395728,1.51523 -0.883883,1.51523 -0.488156,0 -0.883884,-0.67839 -0.883884,-1.51523 0,-0.83684 0.395728,-1.51523 0.883884,-1.51523 0.488155,0 0.883883,0.67839 0.883883,1.51523 z"
           transform="matrix(3.3941122,0,0,1.9798989,41.61327,-1341.4855)" />
      </g>
      <g
         id="g4882-9-1-7-6-6"
         transform="translate(163.66794,-9.7558593e-6)">
        <path
           sodipodi:type="arc"
           style="fill:#ffffff;fill-opacity:1;stroke:none"
           id="path4858-9-6-0-7-7"
           sodipodi:cx="15.278557"
           sodipodi:cy="774.99872"
           sodipodi:rx="0.88388348"
           sodipodi:ry="1.5152289"
           d="m 16.16244,774.99872 c 0,0.83684 -0.395728,1.51523 -0.883883,1.51523 -0.488156,0 -0.883884,-0.67839 -0.883884,-1.51523 0,-0.83684 0.395728,-1.51523 0.883884,-1.51523 0.488155,0 0.883883,0.67839 0.883883,1.51523 z"
           transform="matrix(3.3941122,0,0,1.9798989,41.61327,-1357.4855)" />
        <path
           sodipodi:type="arc"
           style="fill:#ffffff;fill-opacity:1;stroke:none"
           id="path4858-8-6-9-5-9-1"
           sodipodi:cx="15.278557"
           sodipodi:cy="774.99872"
           sodipodi:rx="0.88388348"
           sodipodi:ry="1.5152289"
           d="m 16.16244,774.99872 c 0,0.83684 -0.395728,1.51523 -0.883883,1.51523 -0.488156,0 -0.883884,-0.67839 -0.883884,-1.51523 0,-0.83684 0.395728,-1.51523 0.883884,-1.51523 0.488155,0 0.883883,0.67839 0.883883,1.51523 z"
           transform="matrix(3.3941122,0,0,1.9798989,41.61327,-1341.4855)" />
      </g>
      <path
         transform="matrix(3.3941122,0,0,1.9798989,193.07318,-1349.6845)"
         d="m 16.16244,774.99872 c 0,0.83684 -0.395728,1.51523 -0.883883,1.51523 -0.488156,0 -0.883884,-0.67839 -0.883884,-1.51523 0,-0.83684 0.395728,-1.51523 0.883884,-1.51523 0.488155,0 0.883883,0.67839 0.883883,1.51523 z"
         sodipodi:ry="1.5152289"
         sodipodi:rx="0.88388348"
         sodipodi:cy="774.99872"
         sodipodi:cx="15.278557"
         id="path4858-9-61-3"
         style="fill:#ffffff;fill-opacity:1;stroke:none"
         sodipodi:type="arc" />
      <path
         transform="matrix(3.3941122,0,0,1.9798989,205.28121,-1349.5633)"
         d="m 16.16244,774.99872 c 0,0.83684 -0.395728,1.51523 -0.883883,1.51523 -0.488156,0 -0.883884,-0.67839 -0.883884,-1.51523 0,-0.83684 0.395728,-1.51523 0.883884,-1.51523 0.488155,0 0.883883,0.67839 0.883883,1.51523 z"
         sodipodi:ry="1.5152289"
         sodipodi:rx="0.88388348"
         sodipodi:cy="774.99872"
         sodipodi:cx="15.278557"
         id="path4858-9-61-3-4"
         style="fill:#ffffff;fill-opacity:1;stroke:none"
         sodipodi:type="arc" />
    </g>
    <g
       id="g5173"
       transform="translate(0.7690943,-1.0333714e-5)">
      <path
         transform="matrix(0.21747573,0,0,0.21747573,259.75137,157.23542)"
         d="m 224.28571,127.36218 c 0,40.63238 -32.93905,73.57143 -73.57143,73.57143 -40.63238,0 -73.571427,-32.93905 -73.571427,-73.57143 0,-40.632374 32.939047,-73.571424 73.571427,-73.571424 40.63238,0 73.57143,32.93905 73.57143,73.571424 z"
         sodipodi:ry="73.571426"
         sodipodi:rx="73.571426"
         sodipodi:cy="127.36218"
         sodipodi:cx="150.71428"
         id="path3612-1-2-5"
         style="fill:url(#radialGradient4769-1);fill-opacity:1;stroke:#0000ff;stroke-width:9.1964283;stroke-miterlimit:4;stroke-opacity:1;stroke-dasharray:none"
         sodipodi:type="arc" />
      <path
         id="path5120"
         d="m 301.51566,180.13201 c -3.50452,0.67789 -6.50305,2.41774 -9.30388,4.5625 -2.55896,-2.01834 -5.54593,-3.99465 -9.16334,-4.4375 -2.48382,0 -4.49735,2.23858 -4.49735,5 0,2.76142 2.01353,5 4.49735,5 3.50452,-0.67789 6.50304,-2.41774 9.30388,-4.5625 2.55895,2.01834 5.54592,3.99465 9.16334,4.4375 2.48381,0 4.49734,-2.23858 4.49734,-5 0,-2.76142 -2.01353,-5 -4.49734,-5 z m -18.3829,1.15625 c 3.06412,0.37313 5.57675,2.1471 7.6736,3.84375 -2.29946,1.81487 -4.76848,3.31602 -7.6736,3.875 -1.92439,0 -3.48544,-1.74683 -3.48544,-3.875 0,-2.12817 1.56105,-3.84375 3.48544,-3.84375 z m 18.29857,0.0937 c 1.9244,0 3.48544,1.74683 3.48544,3.875 0,2.12817 -1.56104,3.84375 -3.48544,3.84375 -3.06412,-0.37313 -5.57675,-2.1471 -7.67359,-3.84375 2.29945,-1.81487 4.76847,-3.31602 7.67359,-3.875 z"
         style="fill:#ffffff;fill-opacity:1;stroke:none" />
    </g>
    <path
       style="fill:url(#linearGradient5331);fill-opacity:1;stroke:#003300;stroke-width:1.77499999999999991;stroke-miterlimit:4;stroke-opacity:1;stroke-dasharray:none;stroke-linejoin:round"
       d="m 323.50182,168.98743 -4.99185,4.32627 -4.99184,4.29853 5.01957,4.1876 5.04731,4.21534 -0.0277,-3.3279 c 4.23975,1.55202 7.28187,5.59736 7.29364,10.37194 l -0.0555,0 0,7.98695 8.87439,0 0,-7.98695 0.0555,0 c -0.013,-9.72718 -6.97855,-17.8186 -16.19576,-19.57912 l -0.0277,-4.49266 z"
       id="rect5171" />
    <path
       style="fill:url(#linearGradient5307);fill-opacity:1;stroke:#003300;stroke-width:1.77499999999999991;stroke-miterlimit:4;stroke-opacity:1;stroke-dasharray:none;stroke-linejoin:round"
       d="m 349.57033,168.82104 -4.1876,5.04731 -4.1876,5.01957 4.04894,0 0,22.15824 8.87439,0 0,-22.2137 4.07667,-0.0277 -4.29853,-4.99184 -4.32627,-4.99185 z"
       id="path5230-3" />
    <path
       style="fill:url(#linearGradient5323);fill-opacity:1;stroke:#003300;stroke-width:1.77499999999999991;stroke-miterlimit:4;stroke-opacity:1;stroke-dasharray:none;stroke-linejoin:round"
       d="m 377.00745,168.98743 4.99184,4.32627 4.99184,4.29853 -5.01957,4.1876 -5.04731,4.21534 0.0277,-3.3279 c -4.23975,1.55202 -7.28186,5.59736 -7.29364,10.37194 l 0.0555,0 0,7.98695 -8.87438,0 0,-7.98695 -0.0555,0 c 0.013,-9.72718 6.97855,-17.8186 16.19576,-19.57912 l 0.0277,-4.49266 z"
       id="rect5171-8" />
    <path
       style="fill:url(#linearGradient5350);fill-opacity:1;stroke:#003300;stroke-width:1.77499999999999991;stroke-miterlimit:4;stroke-opacity:1;stroke-dasharray:none;stroke-linejoin:round"
       d="m 399.13081,201.04616 4.1876,-5.04731 4.1876,-5.01957 -4.04894,0 0,-22.15824 -8.87439,0 0,22.2137 -4.07667,0.0277 4.29853,4.99184 4.32627,4.99185 z"
       id="path5230-3-2" />
    <text
       xml:space="preserve"
       style="font-size:40px;font-style:normal;font-weight:normal;fill:#000000;fill-opacity:1;stroke:none;font-family:Bitstream Vera Sans"
       x="95.597786"
       y="-73.200203"
       id="text5371"><tspan
         sodipodi:role="line"
         x="95.597786"
         y="-73.200203"
         id="tspan5375"
         style="font-size:14px">Описание:</tspan><tspan
         sodipodi:role="line"
         x="95.597786"
         y="-55.700199"
         id="tspan5379"
         style="font-size:14px">1. Высота иконок включая обводку: 34пикс</tspan><tspan
         sodipodi:role="line"
         x="95.597786"
         y="-38.200199"
         id="tspan5381"
         style="font-size:14px">2. Толщина обводки: 2пикс</tspan></text>
    <g
       id="g5432"
       transform="matrix(0.86854247,0,0,1.001429,47.740506,-0.41541433)">
      <path
         sodipodi:nodetypes="cccscc"
         id="path5383-4"
         d="m 448.90277,171.20596 -13.64364,17.01702 14.0634,8.98239 c 3.62258,1.80338 9.42481,0.91152 12.59162,-2.09238 3.3389,-3.16712 4.9113,-9.13326 2.14564,-12.04892 l -15.15702,-11.85811 z"
         style="fill:#00a800;fill-opacity:1;stroke:#003300;stroke-width:1.43299985000000007;stroke-miterlimit:4;stroke-opacity:1;stroke-dasharray:none" />
      <path
         transform="matrix(0.64640274,0.68146177,-0.68146177,0.64640274,731.34823,-574.59778)"
         d="m 380.01639,776.24896 c 0,6.42297 -4.54682,11.62981 -10.15561,11.62981 -5.60879,0 -10.15561,-5.20684 -10.15561,-11.62981 0,-6.42297 4.54682,-11.62981 10.15561,-11.62981 5.60879,0 10.15561,5.20684 10.15561,11.62981 z"
         sodipodi:ry="11.629811"
         sodipodi:rx="10.15561"
         sodipodi:cy="776.24896"
         sodipodi:cx="369.86078"
         id="path5383"
         style="fill:url(#linearGradient5439);fill-opacity:1;stroke:#003300;stroke-width:2;stroke-miterlimit:4;stroke-opacity:1;stroke-dasharray:none"
         sodipodi:type="arc" />
      <g
         transform="matrix(0.9392692,0,0,0.9392692,25.937528,12.271281)"
         style="fill:#008080;stroke:none"
         id="g5428">
        <path
           style="fill:#008080;stroke:none"
           d="m 356.97021,779.49912 c 1.15824,0 2.31648,0 3.47472,0 0.30887,0 0.61773,0 0.9266,0 0.0772,0 0.15443,0 0.23164,0 0.0772,0 0.1584,-0.0244 0.23165,0 0.0518,0.0173 0.064,0.0986 0.11583,0.11582 0.10988,0.0366 0.23164,0 0.34747,0 0.27026,0 0.54051,0 0.81077,0 0.11582,0 0.2351,-0.0281 0.34747,0 0.0838,0.0209 0.14975,0.0885 0.23165,0.11582 0.10988,0.0366 0.23511,-0.0281 0.34747,0 0.0838,0.0209 0.1479,0.0949 0.23165,0.11583 0.18728,0.0468 0.38983,-0.0379 0.57912,0 0.0847,0.0169 0.1479,0.0949 0.23165,0.11582 0.18728,0.0468 0.38983,-0.0379 0.57912,0 0.0847,0.0169 0.1479,0.0949 0.23165,0.11583 0.0749,0.0187 0.15839,-0.0244 0.23165,0 0.0518,0.0173 0.064,0.0985 0.11582,0.11582 0.0733,0.0244 0.15443,0 0.23165,0 0.0772,0 0.15443,0 0.23165,0 0.34747,0 0.69494,0 1.04242,0 0.27162,0 -0.0546,-0.0273 0.23164,0.11582 0.0353,0.0176 0.29532,0 0.34748,0 0.30886,0 0.61773,0 0.92659,0 0.0281,0 0.34375,0.004 0.34747,0 0.0273,-0.0273 -0.0273,-0.0885 0,-0.11582 0.0317,-0.0317 0.40047,0.0314 0.4633,0 0.0488,-0.0244 0.067,-0.0914 0.11582,-0.11582 0.0628,-0.0314 0.43161,0.0317 0.4633,0 0.0273,-0.0273 -0.0273,-0.0885 0,-0.11583 0.005,-0.005 0.52451,0 0.57912,0 0.0386,0 0.0885,0.0273 0.11583,0 0.0273,-0.0273 -0.0273,-0.0885 0,-0.11582 0.005,-0.005 0.52451,0 0.57912,0 0.0386,0 0.0885,0.0273 0.11582,0 0.0273,-0.0273 -0.0273,-0.0885 0,-0.11583 0.0273,-0.0273 0.0772,0 0.11583,0 0.23164,0 0.46329,0 0.69494,0 0.0386,0 0.0772,0 0.11583,0 0.0386,0 0.0885,0.0273 0.11582,0 0.0273,-0.0273 -0.0273,-0.0885 0,-0.11582 0.0273,-0.0273 0.0772,0 0.11582,0 0.23165,0 0.4633,0 0.69495,0 0.19304,0 0.38608,0 0.57912,0 0.0386,0 0.0885,-0.0273 0.11582,0 0.005,0.005 0,0.42076 0,0.4633 0,0.0386 0.0273,0.0885 0,0.11582 -0.0273,0.0273 -0.0885,-0.0273 -0.11582,0 -0.0579,0.0579 0.0579,0.28956 0,0.34747 -0.0273,0.0273 -0.0885,-0.0273 -0.11582,0 -0.0273,0.0273 0.0273,0.0885 0,0.11583 -0.0273,0.0273 -0.0885,-0.0273 -0.11583,0 -0.0386,0.0386 0.0386,0.19305 0,0.23165 -0.0273,0.0273 -0.0885,-0.0273 -0.11582,0 -0.0546,0.0546 0.0345,0.16258 0,0.23164 -0.0244,0.0488 -0.0914,0.067 -0.11583,0.11583 -0.0173,0.0345 0.0273,0.0885 0,0.11582 -0.0273,0.0273 -0.0885,-0.0273 -0.11582,0 -0.0546,0.0546 0.0546,0.17705 0,0.23165 -0.0273,0.0273 -0.0885,-0.0273 -0.11582,0 -0.0546,0.0546 0.0546,0.17705 0,0.23165 -0.0273,0.0273 -0.0885,-0.0273 -0.11583,0 -0.0273,0.0273 0.0173,0.0813 0,0.11582 -0.0244,0.0488 -0.0914,0.067 -0.11582,0.11583 -0.0173,0.0345 0.0273,0.0885 0,0.11582 -0.0273,0.0273 -0.0885,-0.0273 -0.11583,0 -0.0273,0.0273 0.0273,0.0885 0,0.11583 -0.0273,0.0273 -0.0885,-0.0273 -0.11582,0 -0.0273,0.0273 0.0273,0.0885 0,0.11582 -0.0273,0.0273 -0.0885,-0.0273 -0.11583,0 -0.0273,0.0273 0.0273,0.0885 0,0.11582 -0.0273,0.0273 -0.0885,-0.0273 -0.11582,0 -0.0273,0.0273 0.0273,0.0885 0,0.11583 -0.0273,0.0273 -0.0885,-0.0273 -0.11582,0 -0.0273,0.0273 0.0273,0.0885 0,0.11582 -0.0546,0.0546 -0.17705,-0.0546 -0.23165,0 -0.0273,0.0273 0.0273,0.0885 0,0.11583 -0.0273,0.0273 -0.0813,-0.0173 -0.11583,0 -0.0488,0.0244 -0.067,0.0914 -0.11582,0.11582 -0.0691,0.0345 -0.17705,-0.0546 -0.23165,0 -0.0273,0.0273 0.0273,0.0885 0,0.11583 -0.0546,0.0546 -0.17705,-0.0546 -0.23165,0 -0.0273,0.0273 0.0273,0.0885 0,0.11582 -0.0546,0.0546 -0.17705,-0.0546 -0.23165,0 -0.0273,0.0273 0.0273,0.0885 0,0.11582 -0.0546,0.0546 -0.17704,-0.0546 -0.23164,0 -0.0273,0.0273 0.0273,0.0885 0,0.11583 -0.0273,0.0273 -0.0813,-0.0173 -0.11583,0 -0.0488,0.0244 -0.067,0.0914 -0.11582,0.11582 -0.0691,0.0345 -0.17705,-0.0546 -0.23165,0 -0.0273,0.0273 0.0273,0.0885 0,0.11583 -0.0273,0.0273 -0.0813,-0.0173 -0.11583,0 -0.0488,0.0244 -0.067,0.0914 -0.11582,0.11582 -0.0345,0.0173 -0.0813,-0.0173 -0.11582,0 -0.38414,0.38414 0.1092,-0.0546 -0.23165,0.11583 -0.0488,0.0244 -0.067,0.0914 -0.11583,0.11582 -0.0345,0.0173 -0.0813,-0.0173 -0.11582,0 -0.0488,0.0244 -0.067,0.0914 -0.11583,0.11582 -0.0345,0.0173 -0.0885,-0.0273 -0.11582,0 -0.0273,0.0273 0.0273,0.0885 0,0.11583 -0.0546,0.0546 -0.16258,-0.0345 -0.23165,0 -0.0488,0.0244 -0.067,0.0914 -0.11582,0.11582 -0.0345,0.0173 -0.0885,-0.0273 -0.11583,0 -0.0273,0.0273 0.0273,0.0885 0,0.11583 -0.0386,0.0386 -0.19307,-0.0386 -0.23164,0 -0.0273,0.0273 0.0273,0.0885 0,0.11582 -0.0546,0.0546 -0.17705,-0.0546 -0.23165,0 -0.0273,0.0273 0.0273,0.0885 0,0.11582 -0.0546,0.0546 -0.16259,-0.0345 -0.23165,0 -0.0488,0.0244 -0.067,0.0914 -0.11583,0.11583 -0.0345,0.0173 -0.0885,-0.0273 -0.11582,0 -0.0273,0.0273 0.0273,0.0885 0,0.11582 -0.0273,0.0273 -0.0885,-0.0273 -0.11582,0 -0.0273,0.0273 0.0273,0.0885 0,0.11583 -0.0386,0.0386 -0.19304,-0.0386 -0.23165,0 -0.0273,0.0273 0.0273,0.0885 0,0.11582 -0.0546,0.0546 -0.17705,-0.0546 -0.23165,0 -0.0273,0.0273 0.0273,0.0885 0,0.11583 -0.0546,0.0546 -0.17705,-0.0546 -0.23165,0 -0.0273,0.0273 0.0273,0.0885 0,0.11582 -0.0546,0.0546 -0.17705,-0.0546 -0.23165,0 -0.0273,0.0273 0.0273,0.0885 0,0.11582 -0.0546,0.0546 -0.17705,-0.0546 -0.23165,0 -0.0273,0.0273 0.0273,0.0885 0,0.11583 -0.0546,0.0546 -0.16258,-0.0345 -0.23164,0 -0.0488,0.0244 -0.067,0.0914 -0.11583,0.11582 -0.0345,0.0173 -0.0885,-0.0273 -0.11582,0 -0.0273,0.0273 0.0273,0.0885 0,0.11583 -0.0546,0.0546 -0.17705,-0.0546 -0.23165,0 -0.0273,0.0273 0.0273,0.0885 0,0.11582 -0.23965,0.23965 0.009,-0.36621 -0.23165,0.11583 -0.0173,0.0345 0.0273,0.0885 0,0.11582 -0.23964,0.23964 0.009,-0.36621 -0.23165,0.11582 -0.0173,0.0345 0.0273,0.0885 0,0.11583 -0.23964,0.23964 0.009,-0.36621 -0.23165,0.11582 -0.0173,0.0345 0.0173,0.0813 0,0.11583 -0.0488,0.0977 -0.18281,0.13397 -0.23165,0.23164 -0.0173,0.0345 0.0273,0.0885 0,0.11583 -0.0273,0.0273 -0.0885,-0.0273 -0.11582,0 -0.0383,0.0384 0.0384,0.1933 0,0.23165 -0.0273,0.0273 -0.0885,-0.0273 -0.11582,0 -0.0273,0.0273 0.0273,0.0885 0,0.11582 -0.0273,0.0273 -0.0885,-0.0273 -0.11583,0 -0.0546,0.0546 0.0345,0.16259 0,0.23165 -0.0244,0.0488 -0.067,0.0914 -0.11582,0.11582 -0.0345,0.0173 -0.0986,-0.0345 -0.11583,0 -0.0463,0.0927 0.0463,0.25482 0,0.34748 -0.0244,0.0488 -0.0914,0.067 -0.11582,0.11582 -0.0173,0.0345 0.0173,0.0813 0,0.11583 -0.0166,0.0332 -0.21506,0.19847 -0.23165,0.23164 -0.0173,0.0345 0.0173,0.0813 0,0.11583 -0.0244,0.0488 -0.0914,0.067 -0.11582,0.11582 -0.0345,0.0691 0.0345,0.16259 0,0.23165 -0.0244,0.0488 -0.0914,0.067 -0.11583,0.11582 -0.0463,0.0927 0.0463,0.25482 0,0.34748 -0.0244,0.0488 -0.0914,0.067 -0.11582,0.11582 -0.0316,0.0632 0.0316,0.16846 0,0.23165 -0.0244,0.0488 -0.0914,0.067 -0.11583,0.11582 -0.0345,0.0691 0.0345,0.16259 0,0.23165 -0.0244,0.0488 -0.0914,0.067 -0.11582,0.11583 -0.0173,0.0345 0,0.0772 0,0.11582 0,0.0524 0.0154,0.66408 0,0.69495 -0.0244,0.0488 -0.0914,0.067 -0.11582,0.11582 -0.0152,0.0305 0,0.40273 0,0.4633 0,0.30886 0,0.61773 0,0.92659 0,0.42469 0,0.84938 0,1.27407 0,0.0386 0,0.0772 0,0.11582 0,0.0386 0.0273,0.0885 0,0.11583 -0.0273,0.0273 -0.0885,-0.0273 -0.11583,0 -0.005,0.005 0,0.42076 0,0.46329 0,0.0546 0.005,0.57387 0,0.57912 -0.0273,0.0273 -0.0885,-0.0273 -0.11582,0 -0.0579,0.0579 0.0579,0.28956 0,0.34748 -0.0273,0.0273 -0.0885,-0.0273 -0.11583,0 -0.0279,0.0279 0.0279,0.43542 0,0.46329 -0.0273,0.0273 -0.0885,-0.0273 -0.11582,0 -0.005,0.005 0,0.52451 0,0.57912 0,0.0386 0.0273,0.0885 0,0.11583 -0.0273,0.0273 -0.0885,-0.0273 -0.11583,0 -0.0273,0.0273 0,0.0772 0,0.11582 0,0.19304 0,0.38608 0,0.57912 0,0.54052 0,1.08103 0,1.62154 0,0.0386 0,0.0772 0,0.11583 0,0.0386 0.0273,0.0885 0,0.11582 -0.0273,0.0273 -0.0885,-0.0273 -0.11582,0 -0.0579,0.0579 0.0579,0.28956 0,0.34747 -0.0273,0.0273 -0.0885,-0.0273 -0.11582,0 -0.0546,0.0546 0.0546,0.17705 0,0.23165 -0.0273,0.0273 -0.0885,0.0273 -0.11583,0 -0.0273,-0.0273 0,-0.0772 0,-0.11582 0,-0.23165 0,-0.4633 0,-0.69495 0,-0.73355 0,-1.4671 0,-2.20066 0,-0.73355 0,-1.4671 0,-2.20066 0,-0.30886 0,-0.61773 0,-0.92659 0,-0.0522 0.0176,-0.31222 0,-0.34747 -0.0244,-0.0488 -0.0914,-0.067 -0.11582,-0.11583 -0.0173,-0.0345 0,-0.0772 0,-0.11582 0,-0.0386 0,-0.0772 0,-0.11583 0,-0.23165 0,-0.46329 0,-0.69494 0,-0.30887 0,-0.61773 0,-0.9266 0,-0.0386 0.0273,-0.0885 0,-0.11582 -0.0273,-0.0273 -0.0885,0.0273 -0.11583,0 -0.0279,-0.0279 0.0279,-0.43543 0,-0.4633 -0.0273,-0.0273 -0.0885,0.0273 -0.11582,0 -0.0407,-0.0407 0.04,-0.49911 0,-0.57912 -0.0244,-0.0488 -0.0914,-0.067 -0.11582,-0.11582 -0.0463,-0.0927 0.0463,-0.25482 0,-0.34747 -0.0244,-0.0488 -0.0914,-0.067 -0.11583,-0.11583 -0.0364,-0.0728 0.0364,-0.3905 0,-0.4633 -0.0244,-0.0488 -0.0914,-0.067 -0.11582,-0.11582 -0.0316,-0.0633 0.0316,-0.1684 0,-0.23165 -0.0244,-0.0488 -0.0914,-0.067 -0.11583,-0.11582 -0.0345,-0.0691 0.0546,-0.17705 0,-0.23165 -0.0273,-0.0273 -0.0885,0.0273 -0.11582,0 -0.018,-0.018 0.015,-0.3024 0,-0.34747 -0.0273,-0.0819 -0.0885,-0.14975 -0.11583,-0.23165 -0.0122,-0.0366 0.0173,-0.0813 0,-0.11583 -0.0244,-0.0488 -0.0914,-0.067 -0.11582,-0.11582 -0.0345,-0.0691 0.0345,-0.16258 0,-0.23165 -0.0244,-0.0488 -0.0914,-0.067 -0.11582,-0.11582 -0.0345,-0.0691 0.0546,-0.17705 0,-0.23165 -0.0273,-0.0273 -0.0885,0.0273 -0.11583,0 -0.0546,-0.0546 0.0546,-0.17705 0,-0.23165 -0.0273,-0.0273 -0.0885,0.0273 -0.11582,0 -0.0579,-0.0579 0.0579,-0.28956 0,-0.34747 -0.0273,-0.0273 -0.0885,0.0273 -0.11583,0 -0.0273,-0.0273 0.0173,-0.0813 0,-0.11583 -0.0244,-0.0488 -0.0914,-0.067 -0.11582,-0.11582 -0.0173,-0.0345 0.0273,-0.0885 0,-0.11582 -0.0273,-0.0273 -0.0885,0.0273 -0.11582,0 -0.0546,-0.0546 0.0546,-0.17705 0,-0.23165 -0.0273,-0.0273 -0.0885,0.0273 -0.11583,0 -0.0273,-0.0273 0.0273,-0.0885 0,-0.11583 -0.0273,-0.0273 -0.0885,0.0273 -0.11582,0 -0.0383,-0.0383 0.0383,-0.1933 0,-0.23165 -0.0273,-0.0273 -0.0885,0.0273 -0.11583,0 -0.0273,-0.0273 0.0273,-0.0885 0,-0.11582 -0.0273,-0.0273 -0.0885,0.0273 -0.11582,0 -0.0273,-0.0273 0.0273,-0.0885 0,-0.11582 -0.0273,-0.0273 -0.0813,0.0173 -0.11583,0 -0.0488,-0.0244 -0.067,-0.0914 -0.11582,-0.11583 -0.0345,-0.0173 -0.0885,0.0273 -0.11582,0 -0.0273,-0.0273 0.0273,-0.0885 0,-0.11582 -0.0273,-0.0273 -0.0885,0.0273 -0.11583,0 -0.0273,-0.0273 0.0273,-0.0885 0,-0.11583 -0.0546,-0.0546 -0.17705,0.0546 -0.23165,0 -0.0273,-0.0273 0.0273,-0.0885 0,-0.11582 -0.0546,-0.0546 -0.17705,0.0546 -0.23165,0 -0.0273,-0.0273 0.0273,-0.0885 0,-0.11583 -0.0273,-0.0273 -0.0885,0.0273 -0.11582,0 -0.0273,-0.0273 0.0273,-0.0885 0,-0.11582 -0.0546,-0.0546 -0.17705,0.0546 -0.23165,0 -0.0273,-0.0273 0.0273,-0.0885 0,-0.11582 -0.0546,-0.0546 -0.17705,0.0546 -0.23165,0 -0.0273,-0.0273 0.0273,-0.0885 0,-0.11583 -0.0273,-0.0273 -0.0885,0.0273 -0.11582,0 -0.0273,-0.0273 0.0273,-0.0885 0,-0.11582 -0.0546,-0.0546 -0.17705,0.0546 -0.23165,0 -0.0273,-0.0273 0.0273,-0.0885 0,-0.11583 -0.0273,-0.0273 -0.0885,0.0273 -0.11582,0 -0.0273,-0.0273 0.0273,-0.0885 0,-0.11582 -0.0273,-0.0273 -0.0885,0.0273 -0.11583,0 -0.0273,-0.0273 0.0273,-0.0885 0,-0.11582 -0.0273,-0.0273 -0.0885,0.0273 -0.11582,0 -0.0273,-0.0273 0.0273,-0.0885 0,-0.11583 -0.0273,-0.0273 -0.0772,0 -0.11583,0 0,-0.0386 0.0273,-0.0885 0,-0.11582 -0.0273,-0.0273 -0.0885,0.0273 -0.11582,0 -0.0273,-0.0273 0.0273,-0.0885 0,-0.11583 -0.0273,-0.0273 -0.0885,0.0273 -0.11582,0 -0.0273,-0.0273 0.0273,-0.0885 0,-0.11582 -0.0273,-0.0273 -0.0885,0.0273 -0.11583,0 -0.0273,-0.0273 0.0273,-0.0885 0,-0.11583 -0.0273,-0.0273 -0.0885,0.0273 -0.11582,0 -0.0273,-0.0273 0.0273,-0.0885 0,-0.11582 -0.0273,-0.0273 -0.0885,0.0273 -0.11583,0 -0.0546,-0.0546 0.0546,-0.17705 0,-0.23165 -0.0273,-0.0273 -0.0885,0.0273 -0.11582,0 -0.0273,-0.0273 0.0273,-0.0885 0,-0.11582 -0.0273,-0.0273 -0.0885,0.0273 -0.11583,0 -0.0546,-0.0546 0.0546,-0.17705 0,-0.23165 -0.0273,-0.0273 -0.0885,0.0273 -0.11582,0 -0.0273,-0.0273 0.0273,-0.0885 0,-0.11583 -0.0273,-0.0273 -0.0885,0.0273 -0.11582,0 -0.0546,-0.0546 0.0546,-0.17704 0,-0.23164 -0.0273,-0.0273 -0.0885,0.0273 -0.11583,0 -0.0273,-0.0273 0.0273,-0.0885 0,-0.11583 -0.0273,-0.0273 -0.0885,0.0273 -0.11582,0 -0.0386,-0.0386 0.0386,-0.19309 0,-0.23165 -0.0273,-0.0273 -0.0885,0.0273 -0.11583,0 -0.0546,-0.0546 0.0546,-0.17704 0,-0.23164 -0.0273,-0.0273 -0.0885,0.0273 -0.11582,0 -0.0386,-0.0386 0.0386,-0.19306 0,-0.23165 -0.0273,-0.0273 -0.0885,0.0273 -0.11582,0 -0.0273,-0.0273 0.0273,-0.0885 0,-0.11583 -0.0273,-0.0273 -0.0885,0.0273 -0.11583,0 -0.0386,-0.0386 0.0386,-0.19305 0,-0.23165 -0.0273,-0.0273 -0.0772,0 -0.11582,0 0,-0.0386 0.0273,-0.0885 0,-0.11582 -0.0273,-0.0273 -0.0885,0.0273 -0.11583,0 -0.0546,-0.0546 0.0546,-0.17705 0,-0.23165 -0.0273,-0.0273 -0.0885,0.0273 -0.11582,0 -0.0386,-0.0386 0.0386,-0.19305 0,-0.23165 -0.0273,-0.0273 -0.0885,0.0273 -0.11583,0 -0.0273,-0.0273 0,-0.0772 0,-0.11582 0,-0.13536 -0.0258,-0.33453 0,-0.4633 0.0312,-0.15609 0.0772,-0.30886 0.57913,-0.46329 z"
           id="path5424"
           transform="translate(76.142852,-598.0664)" />
        <path
           style="fill:#008080;stroke:none"
           d="m 352.10559,798.95758 c -0.15443,0.0772 -0.58539,0.35374 -0.4633,0.23165 1.23891,-1.23891 0.24653,-0.198 0.69495,-0.34747 0.0819,-0.0273 0.14975,-0.0885 0.23165,-0.11583 0.0732,-0.0244 0.15839,0.0244 0.23164,0 0.0819,-0.0273 0.14975,-0.0885 0.23165,-0.11582 0.0797,-0.0266 0.27914,0.0342 0.34747,0 0.0488,-0.0244 0.067,-0.0914 0.11583,-0.11582 0.0515,-0.0258 0.41032,0.0177 0.4633,0 0.0518,-0.0173 0.067,-0.0914 0.11582,-0.11583 0.0345,-0.0173 0.0772,0 0.11582,0 0.0948,0 0.50408,0.025 0.57913,0 0.0819,-0.0273 0.14789,-0.0949 0.23164,-0.11582 0.15229,-0.0381 0.43528,0.048 0.57912,0 0.0518,-0.0173 0.064,-0.0986 0.11583,-0.11583 0.12308,-0.041 0.34022,0.041 0.4633,0 0.0819,-0.0273 0.14974,-0.0885 0.23164,-0.11582 0.10988,-0.0366 0.23511,0.0281 0.34748,0 0.0838,-0.0209 0.14975,-0.0885 0.23165,-0.11583 0.10988,-0.0366 0.2351,0.0281 0.34747,0 0.0838,-0.0209 0.14975,-0.0885 0.23165,-0.11582 0.12307,-0.041 0.34022,0.041 0.46329,0 0.0819,-0.0273 0.14975,-0.0885 0.23165,-0.11582 0.0366,-0.0122 0.0772,0 0.11583,0 0.0772,0 0.15443,0 0.23164,0 0.19304,0 0.38608,0 0.57913,0 0.0772,0 0.15839,0.0244 0.23164,0 0.0518,-0.0173 0.064,-0.0986 0.11583,-0.11583 0.14651,-0.0488 0.31347,0.0375 0.46329,0 0.0838,-0.0209 0.14975,-0.0885 0.23165,-0.11582 0.0733,-0.0244 0.16259,0.0345 0.23165,0 0.0488,-0.0244 0.067,-0.0914 0.11583,-0.11583 0.0459,-0.023 0.32379,0.0237 0.34747,0 0.0273,-0.0273 -0.0273,-0.0885 0,-0.11582 0.005,-0.005 0.52451,0 0.57912,0 0.38608,0 0.77216,0 1.15824,0 0.10037,0 0.3962,-0.0224 0.4633,0 0.0819,0.0273 0.14789,0.0949 0.23165,0.11582 0.11236,0.0281 0.2351,-0.0281 0.34747,0 0.11844,0.0296 0.22775,0.0919 0.34747,0.11583 0.11494,0.023 0.45743,0 0.57912,0 0.0772,0 0.15674,-0.0187 0.23165,0 0.0838,0.0209 0.14975,0.0885 0.23165,0.11582 0.0732,0.0244 0.15443,0 0.23165,0 0.19304,0 0.38608,0 0.57912,0 0.54051,0 1.08103,0 1.62154,0 0.0425,0 0.45863,-0.005 0.46329,0 0.0273,0.0273 -0.0273,0.0885 0,0.11583 0.004,0.004 0.31939,0 0.34748,0 0.23165,0 0.46329,0 0.69494,0 0.0772,0 0.15443,0 0.23165,0 0.0772,0 0.15674,-0.0187 0.23165,0 0.0838,0.0209 0.1479,0.0949 0.23165,0.11582 0.0749,0.0187 0.15443,0 0.23165,0 0.0772,0 0.15443,0 0.23164,0 0.0386,0 0.0792,-0.0122 0.11583,0 0.0819,0.0273 0.14789,0.0949 0.23165,0.11582 0.1034,0.0259 0.44505,0 0.57912,0 0.0821,0 0.665,-0.015 0.69494,0 0.0488,0.0244 0.067,0.0914 0.11583,0.11583 0.0731,0.0365 0.50605,-0.0365 0.57912,0 0.0488,0.0244 0.064,0.0986 0.11582,0.11582 0.0678,0.0226 0.59553,0 0.69495,0 0.0386,0 0.0772,0 0.11582,0 0.0386,0 0.0813,-0.0173 0.11583,0 0.0488,0.0244 0.067,0.0914 0.11582,0.11583 0.0419,0.0209 0.49856,0 0.57912,0 0.0386,0 0.0885,-0.0273 0.11583,0 0.0273,0.0273 -0.0273,0.0885 0,0.11582 0.0279,0.0279 0.43542,-0.0279 0.46329,0 0.15444,0.15443 -0.19304,0.11583 0.11583,0.11583 0.0386,0 0.0772,0 0.11582,0 0.0386,0 0.0885,-0.0273 0.11583,0 0.0546,0.0546 -0.0546,0.17704 0,0.23164 0.0273,0.0273 0.0885,-0.0273 0.11582,0 0.005,0.005 0,0.52451 0,0.57912 0,0.0386 0.0273,0.0885 0,0.11583 -0.0273,0.0273 -0.0885,-0.0273 -0.11582,0 -0.0273,0.0273 0.0273,0.0885 0,0.11582 -0.0546,0.0546 -0.17705,-0.0546 -0.23165,0 -0.0273,0.0273 0.0273,0.0885 0,0.11583 -0.0273,0.0273 -0.0885,-0.0273 -0.11583,0 -0.0273,0.0273 0.0273,0.0885 0,0.11582 -0.0546,0.0546 -0.17705,-0.0546 -0.23165,0 -0.0273,0.0273 0.0273,0.0885 0,0.11583 -0.0273,0.0273 -0.0772,0 -0.11582,0 -0.0386,0 -0.0772,0 -0.11582,0 -0.0386,0 -0.0772,0 -0.11583,0 -0.0386,0 -0.0885,-0.0273 -0.11582,0 -0.0273,0.0273 0.0273,0.0885 0,0.11582 -0.0359,0.0359 -0.54326,-0.0359 -0.57912,0 -0.0273,0.0273 0.0273,0.0885 0,0.11582 -0.005,0.005 -0.42077,0 -0.4633,0 -0.4633,0 -0.92659,0 -1.38989,0 -0.15443,0 -0.30887,0 -0.4633,0 -0.0772,0 -0.15839,0.0244 -0.23165,0 -0.0819,-0.0273 -0.14974,-0.0885 -0.23164,-0.11582 -0.0366,-0.0122 -0.0772,0 -0.11583,0 -0.097,0 -0.49104,0.022 -0.57912,0 -0.0838,-0.0209 -0.14975,-0.0885 -0.23165,-0.11582 -0.11033,-0.0368 -0.4663,0.0376 -0.57912,0 -0.0819,-0.0273 -0.14975,-0.0885 -0.23165,-0.11583 -0.0366,-0.0122 -0.0772,0 -0.11582,0 -0.0884,0 -0.62197,0.0243 -0.69495,0 -0.0819,-0.0273 -0.14975,-0.0885 -0.23165,-0.11582 -0.0653,-0.0218 -0.27136,0 -0.34747,0 -0.0546,0 -0.57387,0.005 -0.57912,0 -0.0273,-0.0273 0.0273,-0.0885 0,-0.11583 -0.005,-0.005 -0.42076,0 -0.4633,0 -0.42468,0 -0.84937,0 -1.27406,0 -0.0386,0 -0.0772,0 -0.11583,0 -0.0386,0 -0.0885,0.0273 -0.11582,0 -0.0273,-0.0273 0.0273,-0.0885 0,-0.11582 -0.005,-0.005 -0.42076,0 -0.4633,0 -0.5019,0 -1.00381,0 -1.50571,0 -0.0386,0 -0.0772,0 -0.11583,0 -0.0386,0 -0.0885,-0.0273 -0.11582,0 -0.15443,0.15443 0.19304,0.11582 -0.11582,0.11582 -0.23165,0 -0.4633,0 -0.69495,0 -0.0386,0 -0.0772,0 -0.11582,0 -0.0386,0 -0.0813,-0.0173 -0.11583,0 -0.0488,0.0244 -0.067,0.0914 -0.11582,0.11583 -0.0305,0.0152 -0.40273,0 -0.4633,0 -0.30886,0 -0.61773,0 -0.92659,0 -1.04242,0 -2.08484,0 -3.12726,0 -0.54051,0 -1.08102,0 -1.62154,0 -0.27025,0 -0.54051,0 -0.81076,0 -0.0772,0 -0.15444,0 -0.23165,0 -0.0386,0 -0.0792,-0.0122 -0.11583,0 -0.0819,0.0273 -0.14975,0.0885 -0.23165,0.11582 -0.0366,0.0122 -0.0772,0 -0.11582,0 -0.0646,0 -0.5261,-0.0177 -0.57912,0 -0.0518,0.0173 -0.064,0.0986 -0.11583,0.11583 -0.10988,0.0366 -0.23164,0 -0.34747,0 -0.27025,0 -0.54051,0 -0.81077,0 -0.0386,0 -0.0772,0 -0.11582,0 -0.0386,0 -0.0885,0.0273 -0.11583,0 -0.0273,-0.0273 0.0273,-0.0885 0,-0.11583 -0.0273,-0.0273 -0.096,0.0331 -0.11582,0 -0.10697,-0.17828 -0.0587,-0.46379 -0.23165,-0.57912 -0.13245,-0.0883 -0.30411,0.11582 -0.4633,0.11582 -0.0386,0 0.0273,-0.0885 0,-0.11582 -0.0273,-0.0273 -0.0772,0 -0.11582,0 -0.0386,0 -0.0772,0 -0.11582,0"
           id="path5426"
           transform="translate(76.142852,-598.0664)" />
      </g>
    </g>
    <g
       id="g11796"
       transform="matrix(1.1176471,0,0,1.1176471,-54.222271,-23.72157)">
      <path
         id="path5449"
         d="m 477.2366,177.21485 c -4.48063,0 -8.55535,1.29356 -11.625,3.40625 l -3.84375,3.84375 c -0.12182,0.18522 -0.26466,0.37241 -0.375,0.5625 l 15.9375,15.96875 15.8125,-15.8125 c -0.28904,-0.51602 -0.62886,-1.02044 -1,-1.5 l -2.46875,-2.46875 c -0.0766,-0.0601 -0.1406,-0.12849 -0.21875,-0.1875 -3.12593,-2.36045 -7.44874,-3.8125 -12.21875,-3.8125 z"
         clip-path="none"
         style="fill:url(#linearGradient11790);fill-opacity:1;stroke:none" />
      <rect
         transform="matrix(0.70710677,-0.70710679,0.70710677,0.70710679,0,0)"
         y="457.12115"
         x="196.01025"
         height="22.705984"
         width="22.705984"
         id="rect5441"
         style="fill:none;stroke:#ff0000;stroke-width:1.88888896;stroke-miterlimit:4;stroke-dasharray:none" />
    </g>
    <g
       id="g12608"
       transform="matrix(1.0555556,0,0,1.0555556,-27.768555,-11.218534)">
      <path
         id="path5449-9"
         d="m 517.69778,175.76081 c -4.76761,0 -9.08632,1.38306 -12.34191,3.6397 l -4.00368,4.00368 c -0.14149,0.21372 -0.27004,0.44191 -0.39706,0.66176 l 16.875,16.875 16.74265,-16.74264 c -0.33375,-0.59585 -0.75442,-1.17096 -1.19118,-1.72059 l -2.34926,-2.34927 c -3.3367,-2.68513 -8.07351,-4.36764 -13.33456,-4.36764 z"
         clip-path="none"
         style="fill:url(#linearGradient12612);fill-opacity:1;stroke:none" />
      <rect
         transform="matrix(0.70710677,-0.70710679,0.70710677,0.70710679,0,0)"
         y="484.20364"
         x="224.08234"
         height="24.04163"
         width="24.04163"
         id="rect5507-9"
         style="fill:none;stroke:#ff0000;stroke-width:2;stroke-miterlimit:4;stroke-dasharray:none" />
    </g>
    <g
       id="g11837"
       transform="matrix(1.1176471,0,0,1.1176471,-63.666965,-23.756892)">
      <path
         id="rect5556-9"
         d="m 558.1741,168.8711 -2.59375,2.59375 5.1875,0 -2.59375,-2.59375 z m -2.875,2.875 -3.9375,3.9375 0,0.15625 9.25,0 0,-4.09375 -5.3125,0 z m 6.125,0.375 0,3.71875 3.71875,0 -3.71875,-3.71875 z m -10.625,4.125 -2,2 0,2.0625 9.21875,0 0,-4.0625 -7.21875,0 z m 8.0625,0 0,4.0625 9.21875,0 0,-1.53125 -2.53125,-2.53125 -6.6875,0 z m -12.40625,4.34375 -1.1875,1.1875 0,2.875 9.21875,0 0,-4.0625 -8.03125,0 z m 8.84375,0 0,4.0625 9.25,0 0,-4.0625 -9.25,0 z m 10.0625,0 0,4.0625 8.59375,0 -4.0625,-4.0625 -4.53125,0 z m -23.125,4.46875 4.09375,4.09375 4.90625,0 0,-4.09375 -9,0 z m 9.8125,0 0,4.09375 9.25,0 0,-4.09375 -9.25,0 z m 10.0625,0 0,4.09375 7.90625,0 1.34375,-1.34375 0,-2.75 -9.25,0 z m -13.59375,4.375 0,1.90625 2.15625,2.15625 7.09375,0 0,-4.0625 -9.25,0 z m 10.0625,0 0,4.0625 7.09375,0 2.15625,-2.15625 0,-1.90625 -9.25,0 z m -7.5,4.46875 4.09375,4.09375 0,-4.09375 -4.09375,0 z m 4.90625,0 0,4.09375 5.1875,0 4.0625,-4.0625 0,-0.0312 -9.25,0 z m -0.5625,4.34375 2.75,2.75 2.75,-2.75 -5.5,0 z"
         style="fill:#ff6600;fill-opacity:1;stroke:#ffffff;stroke-width:0.5;stroke-miterlimit:4;stroke-opacity:1;stroke-dasharray:none" />
      <rect
         transform="matrix(0.70710677,-0.70710679,0.70710677,0.70710679,0,0)"
         y="514.10004"
         x="252.56445"
         height="22.705984"
         width="22.705984"
         id="rect5771"
         style="fill:none;stroke:#ff0000;stroke-width:1.88888896;stroke-miterlimit:4;stroke-dasharray:none" />
    </g>
    <g
       id="g11878"
       transform="matrix(1.1176471,0,0,1.1176471,-68.538156,-23.7569)">
      <path
         id="rect5649-0"
         transform="translate(76.142852,-598.0664)"
         d="m 512.0625,778.59375 -4.0625,4.0625 8.75,0 0,-4.0625 -4.6875,0 z m 18.84375,0.0625 0,4.0625 8.5625,0 -4.0625,-4.0625 -4.5,0 z m 0.0625,4.34375 0,4.09375 4.6875,0 L 539.75,783 l -8.78125,0 z m -23.1875,0.125 4.09375,4.09375 4.90625,0 0,-4.09375 -9,0 z m 8.84375,8.84375 4.09375,4.09375 0,-4.09375 -4.09375,0 z m 4.90625,0 0,4.09375 5.1875,0 4.0625,-4.0625 0,-0.0312 -9.25,0 z m -0.5625,4.34375 2.75,2.75 2.75,-2.75 -5.5,0 z"
         style="fill:#ff6600;fill-opacity:1;stroke:#ffffff;stroke-width:0.5;stroke-miterlimit:4;stroke-opacity:1;stroke-dasharray:none" />
      <rect
         transform="matrix(0.70710677,-0.70710679,0.70710677,0.70710679,0,0)"
         y="543.37793"
         x="281.84225"
         height="22.705984"
         width="22.705984"
         id="rect5441-0-6-7"
         style="fill:none;stroke:#ff0000;stroke-width:1.88888896;stroke-miterlimit:4;stroke-dasharray:none" />
    </g>
    <rect
       style="fill:url(#radialGradient5929);fill-opacity:1;stroke:#003300;stroke-width:2.04798197999999987;stroke-miterlimit:4;stroke-opacity:1;stroke-dasharray:none"
       id="rect5919"
       width="31.952019"
       height="31.951839"
       x="627.60718"
       y="170.37766"
       rx="11.236951"
       ry="12.173502" />
    <text
       xml:space="preserve"
       style="font-size:40px;font-style:normal;font-weight:normal;fill:#ffffff;fill-opacity:1;stroke:none;font-family:Bitstream Vera Sans"
       x="643.57733"
       y="195.10161"
       id="text5931"><tspan
         sodipodi:role="line"
         id="tspan5933"
         x="643.57733"
         y="195.10161"
         style="font-size:24px;font-weight:bold;text-align:center;text-anchor:middle;fill:#ffffff;-inkscape-font-specification:Andale Mono Bold">А</tspan></text>
    <rect
       style="fill:url(#radialGradient5954);fill-opacity:1;stroke:#003300;stroke-width:2.04798197999999987;stroke-miterlimit:4;stroke-opacity:1;stroke-dasharray:none"
       id="rect5919-8"
       width="31.952019"
       height="31.951839"
       x="663.82013"
       y="170.37766"
       rx="11.236951"
       ry="12.173502" />
    <text
       xml:space="preserve"
       style="font-size:40px;font-style:normal;font-weight:normal;fill:#ffffff;fill-opacity:1;stroke:none;font-family:Bitstream Vera Sans"
       x="679.79028"
       y="195.10161"
       id="text5931-7"><tspan
         sodipodi:role="line"
         id="tspan5933-3"
         x="679.79028"
         y="195.10161"
         style="font-size:24px;font-weight:bold;text-align:center;text-anchor:middle;fill:#ffffff;-inkscape-font-specification:Andale Mono Bold">Б</tspan></text>
    <rect
       style="fill:url(#radialGradient6005);fill-opacity:1;stroke:#003300;stroke-width:2.04798197999999987;stroke-miterlimit:4;stroke-opacity:1;stroke-dasharray:none"
       id="rect5919-6"
       width="31.952019"
       height="31.951839"
       x="701.18451"
       y="170.37766"
       rx="11.236951"
       ry="12.173502" />
    <text
       xml:space="preserve"
       style="font-size:40px;font-style:normal;font-weight:normal;fill:#ffffff;fill-opacity:1;stroke:none;font-family:Bitstream Vera Sans"
       x="717.15466"
       y="195.10161"
       id="text5931-3"><tspan
         sodipodi:role="line"
         id="tspan5933-8"
         x="717.15466"
         y="195.10161"
         style="font-size:24px;font-weight:bold;text-align:center;text-anchor:middle;fill:#ffffff;-inkscape-font-specification:Andale Mono Bold">В</tspan></text>
    <rect
       style="fill:url(#radialGradient5954-2);fill-opacity:1;stroke:#003300;stroke-width:2.04798197999999987;stroke-miterlimit:4;stroke-opacity:1;stroke-dasharray:none"
       id="rect5919-8-2"
       width="31.952019"
       height="31.951839"
       x="737.39746"
       y="170.37766"
       rx="11.236951"
       ry="12.173502" />
    <text
       xml:space="preserve"
       style="font-size:40px;font-style:normal;font-weight:normal;fill:#ffffff;fill-opacity:1;stroke:none;font-family:Bitstream Vera Sans"
       x="753.36761"
       y="195.10161"
       id="text5931-7-2"><tspan
         sodipodi:role="line"
         id="tspan5933-3-9"
         x="753.36761"
         y="195.10161"
         style="font-size:24px;font-weight:bold;text-align:center;text-anchor:middle;fill:#ffffff;-inkscape-font-specification:Andale Mono Bold">Г</tspan></text>
    <rect
       style="fill:url(#radialGradient6005-7);fill-opacity:1;stroke:#003300;stroke-width:2.04798197999999987;stroke-miterlimit:4;stroke-opacity:1;stroke-dasharray:none"
       id="rect5919-1"
       width="31.952019"
       height="31.951839"
       x="776.23328"
       y="170.37766"
       rx="11.236951"
       ry="12.173502" />
    <text
       xml:space="preserve"
       style="font-size:40px;font-style:normal;font-weight:normal;fill:#ffffff;fill-opacity:1;stroke:none;font-family:Bitstream Vera Sans"
       x="792.20343"
       y="195.10161"
       id="text5931-5"><tspan
         sodipodi:role="line"
         id="tspan5933-0"
         x="792.20343"
         y="195.10161"
         style="font-size:24px;font-weight:bold;text-align:center;text-anchor:middle;fill:#ffffff;-inkscape-font-specification:Andale Mono Bold">Д</tspan></text>
    <rect
       style="fill:url(#radialGradient5954-7);fill-opacity:1;stroke:#003300;stroke-width:2.04798197999999987;stroke-miterlimit:4;stroke-opacity:1;stroke-dasharray:none"
       id="rect5919-8-8"
       width="31.952019"
       height="31.951839"
       x="812.44623"
       y="170.37766"
       rx="11.236951"
       ry="12.173502" />
    <text
       xml:space="preserve"
       style="font-size:40px;font-style:normal;font-weight:normal;fill:#ffffff;fill-opacity:1;stroke:none;font-family:Bitstream Vera Sans"
       x="828.41638"
       y="195.10161"
       id="text5931-7-24"><tspan
         sodipodi:role="line"
         id="tspan5933-3-1"
         x="828.41638"
         y="195.10161"
         style="font-size:24px;font-weight:bold;text-align:center;text-anchor:middle;fill:#ffffff;-inkscape-font-specification:Andale Mono Bold">Е</tspan></text>
  </g>
</svg>
