<?xml version="1.0" encoding="UTF-8" standalone="no"?>
<!-- Created with Inkscape (http://www.inkscape.org/) -->

<svg
   xmlns:dc="http://purl.org/dc/elements/1.1/"
   xmlns:cc="http://creativecommons.org/ns#"
   xmlns:rdf="http://www.w3.org/1999/02/22-rdf-syntax-ns#"
   xmlns:svg="http://www.w3.org/2000/svg"
   xmlns="http://www.w3.org/2000/svg"
   xmlns:xlink="http://www.w3.org/1999/xlink"
   xmlns:sodipodi="http://sodipodi.sourceforge.net/DTD/sodipodi-0.dtd"
   xmlns:inkscape="http://www.inkscape.org/namespaces/inkscape"
   width="34"
   height="34"
   id="svg6226"
   version="1.1"
   inkscape:version="0.47 r22583"
   sodipodi:docname="Новый документ 48">
  <defs
     id="defs6228">
    <inkscape:perspective
       sodipodi:type="inkscape:persp3d"
       inkscape:vp_x="0 : 526.18109 : 1"
       inkscape:vp_y="0 : 1000 : 0"
       inkscape:vp_z="744.09448 : 526.18109 : 1"
       inkscape:persp3d-origin="372.04724 : 350.78739 : 1"
       id="perspective6234" />
    <inkscape:perspective
       id="perspective6213"
       inkscape:persp3d-origin="0.5 : 0.33333333 : 1"
       inkscape:vp_z="1 : 0.5 : 1"
       inkscape:vp_y="0 : 1000 : 0"
       inkscape:vp_x="0 : 0.5 : 1"
       sodipodi:type="inkscape:persp3d" />
    <radialGradient
       r="73.571426"
       fy="53.79076"
       fx="150.71428"
       cy="53.79076"
       cx="150.71428"
       gradientTransform="matrix(0,1,-1,0,204.50504,-96.923523)"
       gradientUnits="userSpaceOnUse"
       id="radialGradient4731"
       xlink:href="#linearGradient3614-6"
       inkscape:collect="always" />
    <linearGradient
       id="linearGradient3614-6">
      <stop
         style="stop-color:#cce8ff;stop-opacity:1;"
         offset="0"
         id="stop3616-2" />
      <stop
         style="stop-color:#0033ff;stop-opacity:1;"
         offset="1"
         id="stop3618-5" />
    </linearGradient>
  </defs>
  <sodipodi:namedview
     id="base"
     pagecolor="#ffffff"
     bordercolor="#666666"
     borderopacity="1.0"
     inkscape:pageopacity="0.0"
     inkscape:pageshadow="2"
     inkscape:zoom="0.35"
     inkscape:cx="17"
     inkscape:cy="17.000001"
     inkscape:document-units="px"
     inkscape:current-layer="layer1"
     showgrid="false"
     inkscape:window-width="553"
     inkscape:window-height="478"
     inkscape:window-x="0"
     inkscape:window-y="24"
     inkscape:window-maximized="0" />
  <metadata
     id="metadata6231">
    <rdf:RDF>
      <cc:Work
         rdf:about="">
        <dc:format>image/svg+xml</dc:format>
        <dc:type
           rdf:resource="http://purl.org/dc/dcmitype/StillImage" />
        <dc:title></dc:title>
      </cc:Work>
    </rdf:RDF>
  </metadata>
  <g
     inkscape:label="Layer 1"
     inkscape:groupmode="layer"
     id="layer1"
     transform="translate(-358,-515.36218)">
    <g
       id="g5207"
       transform="translate(244.30891,347.42858)">
      <path
         transform="matrix(0.21747573,0,0,0.21747573,97.914392,157.23542)"
         d="m 224.28571,127.36218 c 0,40.63238 -32.93905,73.57143 -73.57143,73.57143 -40.63238,0 -73.571427,-32.93905 -73.571427,-73.57143 0,-40.632374 32.939047,-73.571424 73.571427,-73.571424 40.63238,0 73.57143,32.93905 73.57143,73.571424 z"
         sodipodi:ry="73.571426"
         sodipodi:rx="73.571426"
         sodipodi:cy="127.36218"
         sodipodi:cx="150.71428"
         id="path3612-1"
         style="fill:url(#radialGradient4731);fill-opacity:1;stroke:#0000ff;stroke-width:9.1964283;stroke-miterlimit:4;stroke-opacity:1;stroke-dasharray:none"
         sodipodi:type="arc" />
      <path
         transform="matrix(3.3941122,0,0,1.9798989,78.994971,-1357.4855)"
         d="m 16.16244,774.99872 c 0,0.83684 -0.395728,1.51523 -0.883883,1.51523 -0.488156,0 -0.883884,-0.67839 -0.883884,-1.51523 0,-0.83684 0.395728,-1.51523 0.883884,-1.51523 0.488155,0 0.883883,0.67839 0.883883,1.51523 z"
         sodipodi:ry="1.5152289"
         sodipodi:rx="0.88388348"
         sodipodi:cy="774.99872"
         sodipodi:cx="15.278557"
         id="path4858-9"
         style="fill:#ffffff;fill-opacity:1;stroke:none"
         sodipodi:type="arc" />
      <path
         transform="matrix(3.3941122,0,0,1.9798989,78.994971,-1341.4855)"
         d="m 16.16244,774.99872 c 0,0.83684 -0.395728,1.51523 -0.883883,1.51523 -0.488156,0 -0.883884,-0.67839 -0.883884,-1.51523 0,-0.83684 0.395728,-1.51523 0.883884,-1.51523 0.488155,0 0.883883,0.67839 0.883883,1.51523 z"
         sodipodi:ry="1.5152289"
         sodipodi:rx="0.88388348"
         sodipodi:cy="774.99872"
         sodipodi:cx="15.278557"
         id="path4858-8-6"
         style="fill:#ffffff;fill-opacity:1;stroke:none"
         sodipodi:type="arc" />
      <path
         transform="matrix(3.3941122,0,0,1.9798989,78.913071,-1349.4855)"
         d="m 16.16244,774.99872 c 0,0.83684 -0.395728,1.51523 -0.883883,1.51523 -0.488156,0 -0.883884,-0.67839 -0.883884,-1.51523 0,-0.83684 0.395728,-1.51523 0.883884,-1.51523 0.488155,0 0.883883,0.67839 0.883883,1.51523 z"
         sodipodi:ry="1.5152289"
         sodipodi:rx="0.88388348"
         sodipodi:cy="774.99872"
         sodipodi:cx="15.278557"
         id="path4858-9-61"
         style="fill:#ffffff;fill-opacity:1;stroke:none"
         sodipodi:type="arc" />
    </g>
  </g>
</svg>
